<?xml version="1.0" encoding="UTF-8"?>
<!-- Created with Inkscape (http://www.inkscape.org/) -->
<svg width="672" height="270" version="1.1" viewBox="0 0 672 270" xmlns="http://www.w3.org/2000/svg">
 <g fill="#f60" fill-opacity=".99216" stroke="#000" stroke-width="5">
  <path d="m210.27 12.494a62.5 112.5 0 0 0-59.426 78.049c0.70633-0.52863 1.4113-1.0549 2.1133-1.5469 0.88819-0.62243 1.775-1.2134 2.6602-1.7715 0.88513-0.55807 1.7698-1.0829 2.6562-1.5703 0.88642-0.48739 1.774-0.93729 2.666-1.3477s1.7875-0.7804 2.6894-1.1074c0.902-0.32703 1.8103-0.61226 2.7266-0.84961 0.91628-0.23735 1.8405-0.42701 2.7754-0.56836 0.9349-0.14135 1.88-0.23441 2.8379-0.27344 0.95786-0.039 1.9289-0.0247 2.9141 0.0449 0.98516 0.0696 1.9852 0.19625 3.002 0.38086 1.0168 0.18461 2.0508 0.42846 3.1035 0.73438s2.1238 0.67386 3.2168 1.1074c1.093 0.43356 2.208 0.93248 3.3457 1.5s2.2977 1.2023 3.4844 1.9102c1.194 0.71219 2.3213 1.417 3.3906 2.1211 1.0694 0.70411 2.0814 1.4085 3.0488 2.1191 0.96737 0.71067 1.8893 1.4283 2.7773 2.1602 0.88805 0.73188 1.7429 1.4783 2.5742 2.2461s1.6402 1.5567 2.4375 2.375 1.5832 1.6654 2.3691 2.5488c1.5718 1.7669 3.1426 3.6795 4.8047 5.7949 1.1204 1.4259 2.1225 2.688 3.0527 3.7988 0.93022 1.1108 1.7883 2.0687 2.6191 2.8828 0.41543 0.40708 0.82482 0.77886 1.2324 1.1152 0.40761 0.33637 0.81348 0.63826 1.2246 0.90625 0.41114 0.26799 0.82791 0.50316 1.2539 0.70507 0.42601 0.20192 0.86223 0.36967 1.3144 0.50782 0.45223 0.13814 0.92037 0.24558 1.4102 0.32226 0.48979 0.0767 1.0004 0.12309 1.5391 0.14063 0.53871 0.0175 1.1042 6e-3 1.7031-0.0332 0.59897-0.0393 1.2318-0.10538 1.9023-0.19922 1.3412-0.18767 2.8375-0.48305 4.5332-0.875 1.6957-0.39194 3.5914-0.88125 5.7324-1.459 0.78066-0.21065 1.5921-0.45668 2.4316-0.73437 0.83957-0.2777 1.7067-0.58701 2.5957-0.92579 1.778-0.67755 3.6459-1.4713 5.5644-2.3574 1.9186-0.88615 3.8878-1.865 5.8711-2.9121s3.9792-2.1619 5.9512-3.3223c1.972-1.1604 3.92-2.3658 5.8047-3.5918 0.98663-0.64182 1.8949-1.2954 2.8418-1.9453a62.5 112.5 0 0 0-60.746-86.08zm67.174 106.09c-0.94685 0.64986-1.8552 1.3035-2.8418 1.9453-1.8847 1.226-3.8327 2.4314-5.8047 3.5918-1.972 1.1604-3.9679 2.2752-5.9512 3.3223-1.9833 1.0471-3.9525 2.026-5.8711 2.9121-1.9186 0.88615-3.7865 1.6799-5.5644 2.3574-0.88898 0.33877-1.7561 0.64808-2.5957 0.92579-0.83957 0.27769-1.651 0.52372-2.4316 0.73436-2.141 0.57773-4.0367 1.067-5.7324 1.459-1.6957 0.39195-3.192 0.68733-4.5332 0.875-0.67058 0.0938-1.3034 0.15992-1.9023 0.19922-0.59898 0.0393-1.1644 0.0507-1.7031 0.0332s-1.0493-0.064-1.5391-0.14063c-0.48979-0.0767-0.95793-0.18412-1.4102-0.32226-0.45222-0.13815-0.88844-0.3059-1.3144-0.50782-0.426-0.20191-0.84277-0.43707-1.2539-0.70507-0.41113-0.26799-0.817-0.56988-1.2246-0.90625-0.4076-0.33638-0.81699-0.70816-1.2324-1.1152-0.83085-0.81415-1.6889-1.772-2.6191-2.8828s-1.9324-2.3729-3.0527-3.7988c-1.6621-2.1155-3.2328-4.028-4.8047-5.7949-0.78592-0.88344-1.5718-1.7306-2.3691-2.5488-0.79732-0.81826-1.6061-1.6072-2.4375-2.375-0.83136-0.76776-1.6862-1.5142-2.5742-2.2461-0.88804-0.73188-1.81-1.4495-2.7773-2.1602-0.96738-0.71067-1.9795-1.415-3.0488-2.1191-1.0694-0.70411-2.1966-1.4089-3.3906-2.1211-1.1866-0.70782-2.3467-1.3426-3.4844-1.9102s-2.2527-1.0664-3.3457-1.5c-1.093-0.43356-2.1641-0.80151-3.2168-1.1074s-2.0867-0.54976-3.1035-0.73438c-1.0168-0.18461-2.0168-0.31122-3.002-0.38086-0.98515-0.0696-1.9562-0.0839-2.9141-0.0449-0.95787 0.039-1.903 0.13209-2.8379 0.27343-0.93491 0.14135-1.8591 0.33102-2.7754 0.56836-0.91629 0.23735-1.8246 0.52258-2.7266 0.84961-0.90199 0.32702-1.7974 0.69705-2.6894 1.1074s-1.7796 0.86027-2.666 1.3477c-0.88643 0.48738-1.7711 1.0122-2.6562 1.5703-0.88514 0.55807-1.772 1.149-2.6602 1.7715-0.70201 0.49196-1.407 1.0182-2.1133 1.5469a62.5 112.5 0 0 0-3.0742 34.451 62.5 112.5 0 0 0 62.5 112.5 62.5 112.5 0 0 0 62.5-112.5 62.5 112.5 0 0 0-1.7539-26.42z"/>
  <path d="m519.23 118.59c-0.94685 0.64986-1.8552 1.3035-2.8418 1.9453-1.8847 1.226-3.8327 2.4314-5.8047 3.5918-1.972 1.1604-3.9679 2.2752-5.9512 3.3223-1.9833 1.0471-3.9525 2.026-5.8711 2.9121-1.9186 0.88614-3.7865 1.6799-5.5644 2.3574-0.88898 0.33878-1.7561 0.64808-2.5957 0.92579-0.83957 0.27769-1.651 0.52372-2.4316 0.73437-2.141 0.57773-4.0367 1.067-5.7324 1.459s-3.192 0.68733-4.5332 0.875c-0.67058 0.0938-1.3034 0.15992-1.9023 0.19922-0.59898 0.0393-1.1644 0.0507-1.7031 0.0332s-1.0493-0.064-1.5391-0.14064c-0.48979-0.0767-0.95793-0.18411-1.4102-0.32226-0.45222-0.13815-0.88844-0.30589-1.3144-0.50781-0.426-0.20191-0.84277-0.43708-1.2539-0.70507-0.41113-0.26799-0.817-0.56989-1.2246-0.90625-0.4076-0.33639-0.81699-0.70817-1.2324-1.1152-0.83085-0.81416-1.6889-1.772-2.6191-2.8828-0.93022-1.1108-1.9324-2.3729-3.0527-3.7988-1.6621-2.1155-3.2328-4.028-4.8047-5.7949-0.78592-0.88343-1.5718-1.7306-2.3691-2.5488s-1.6061-1.6072-2.4375-2.375-1.6862-1.5142-2.5742-2.2461c-0.88804-0.73188-1.81-1.4495-2.7773-2.1602-0.96738-0.71067-1.9795-1.415-3.0488-2.1191-1.0694-0.70411-2.1966-1.4089-3.3906-2.1211-1.1866-0.70782-2.3467-1.3426-3.4844-1.9102s-2.2527-1.0664-3.3457-1.5c-1.093-0.43356-2.1641-0.8015-3.2168-1.1074s-2.0867-0.54977-3.1035-0.73438c-1.0168-0.18461-2.0168-0.31123-3.002-0.38086-0.98515-0.0696-1.9562-0.0839-2.9141-0.0449-0.95787 0.039-1.903 0.13209-2.8379 0.27344-0.93491 0.14135-1.8591 0.33101-2.7754 0.56836-0.91629 0.23735-1.8246 0.52258-2.7266 0.84961-0.90199 0.32702-1.7974 0.69705-2.6894 1.1074s-1.7796 0.86027-2.666 1.3477c-0.88643 0.48738-1.7711 1.0122-2.6562 1.5703-0.88514 0.55807-1.772 1.149-2.6602 1.7715-0.70201 0.49196-1.407 1.0182-2.1133 1.5469a62.5 112.5 0 0 0-3.0742 34.451 62.5 112.5 0 0 0 62.5 112.5 62.5 112.5 0 0 0 62.5-112.5 62.5 112.5 0 0 0-1.7539-26.42z"/>
  <path d="m452.05 12.494a62.5 112.5 0 0 0-59.426 78.049c0.70633-0.52863 1.4113-1.0549 2.1133-1.5469 0.88819-0.62243 1.775-1.2134 2.6602-1.7715 0.88513-0.55807 1.7698-1.0829 2.6562-1.5703 0.88642-0.48739 1.774-0.93729 2.666-1.3477s1.7875-0.7804 2.6894-1.1074c0.902-0.32703 1.8103-0.61226 2.7266-0.84961 0.91628-0.23735 1.8405-0.42701 2.7754-0.56836 0.9349-0.14135 1.88-0.23441 2.8379-0.27344 0.95786-0.039 1.9289-0.0247 2.9141 0.0449 0.98516 0.0696 1.9852 0.19625 3.002 0.38086 1.0168 0.18461 2.0508 0.42846 3.1035 0.73438s2.1238 0.67386 3.2168 1.1074c1.093 0.43356 2.208 0.93248 3.3457 1.5s2.2977 1.2023 3.4844 1.9102c1.194 0.71219 2.3213 1.417 3.3906 2.1211 1.0694 0.70411 2.0814 1.4085 3.0488 2.1191 0.96737 0.71067 1.8893 1.4283 2.7773 2.1602 0.88805 0.73188 1.7429 1.4783 2.5742 2.2461s1.6402 1.5567 2.4375 2.375 1.5832 1.6654 2.3691 2.5488c1.5718 1.7669 3.1426 3.6795 4.8047 5.7949 1.1204 1.4259 2.1225 2.688 3.0527 3.7988 0.93022 1.1108 1.7883 2.0686 2.6191 2.8828 0.41543 0.40708 0.82482 0.77886 1.2324 1.1152 0.40761 0.33637 0.81348 0.63826 1.2246 0.90625 0.41114 0.26799 0.82791 0.50316 1.2539 0.70507 0.42601 0.20192 0.86223 0.36967 1.3144 0.50782 0.45223 0.13814 0.92037 0.24558 1.4102 0.32226 0.48979 0.0767 1.0004 0.12309 1.5391 0.14063 0.53871 0.0175 1.1042 6e-3 1.7031-0.0332 0.59897-0.0393 1.2318-0.10538 1.9023-0.19922 1.3412-0.18767 2.8375-0.48305 4.5332-0.875 1.6957-0.39194 3.5914-0.88125 5.7324-1.459 0.78066-0.21065 1.5921-0.45668 2.4316-0.73437 0.83957-0.2777 1.7067-0.58701 2.5957-0.92579 1.778-0.67755 3.6459-1.4713 5.5644-2.3574 1.9186-0.88614 3.8878-1.865 5.8711-2.9121s3.9792-2.1619 5.9512-3.3223c1.972-1.1604 3.92-2.3658 5.8047-3.5918 0.98663-0.64182 1.8949-1.2955 2.8418-1.9453a62.5 112.5 0 0 0-60.746-86.08z"/>
 </g>
</svg>
