<?xml version="1.0" encoding="UTF-8" standalone="no"?>
<!-- Created with Inkscape (http://www.inkscape.org/) -->

<svg
   width="1341.4272mm"
   height="611.51099mm"
   viewBox="0 0 5069.9614 2311.2227"
   version="1.1"
   id="svg5"
   xmlns="http://www.w3.org/2000/svg"
   xmlns:svg="http://www.w3.org/2000/svg">
  <defs
     id="defs2">
    <clipPath
       id="clipPath8129">
      <path
         d="m -4675.099,3169.8892 h -368.1741 V 1592.1549 h 368.1741 z"
         style="font-weight:900;font-size:2165.73px;line-height:1.25;font-family:Lato;-inkscape-font-specification:'Lato Heavy';text-align:center;text-anchor:middle;stroke-width:135.358"
         id="path5999" />
    </clipPath>
    <filter
       id="filter5884">
      <feGaussianBlur
         stdDeviation="4.800000190734863"
         id="feGaussianBlur6002" />
    </filter>
    <clipPath
       id="clipPath8727">
      <path
         d="m -4382.7261,3169.8892 v -1122.931 h 207.9101 q 31.4031,0 51.9775,14.0772 21.6573,14.0773 30.3202,42.2317 l 19.4916,64.9719 q 32.4859,-30.3202 67.1376,-56.3089 34.6517,-25.9888 73.6348,-43.3146 40.066,-18.4087 85.5464,-28.1545 46.5632,-10.8287 100.7064,-10.8287 92.0435,0 162.4298,32.486 71.469,31.4031 120.198,88.7949 48.7289,56.309 73.6348,135.3581 24.9059,77.9663 24.9059,170.0098 v 713.6081 h -335.6882 v -713.6081 q 0,-82.2977 -37.9002,-127.778 -37.9003,-46.5632 -111.5351,-46.5632 -55.2261,0 -103.9551,23.823 -48.7289,23.823 -93.1264,63.889 v 800.2373 z"
         style="font-weight:900;font-size:2165.73px;line-height:1.25;font-family:Lato;-inkscape-font-specification:'Lato Heavy';text-align:center;text-anchor:middle;stroke-width:135.358"
         id="path6005" />
    </clipPath>
    <filter
       x="-0.65366668"
       width="2.3168542"
       id="filter4764">
      <feGaussianBlur
         stdDeviation="4.800000190734863"
         id="feGaussianBlur6008" />
    </filter>
    <clipPath
       id="clipPath6483">
      <path
         d="m -2790.9148,1548.8403 v 908.5237 h 49.8118 q 31.4031,0 47.6461,-8.6629 17.3258,-8.6629 32.4859,-31.4031 l 212.2415,-316.1966 q 18.4088,-28.1545 43.3146,-41.1489 25.9888,-12.9943 64.9719,-12.9943 h 307.5337 l -290.2078,399.5771 q -20.5744,28.1545 -45.4803,49.8118 -23.8231,21.6573 -51.9776,38.9832 48.729,36.8174 84.4635,97.4578 l 316.1966,537.1011 h -303.2022 q -37.9003,0 -66.0548,-11.9116 -27.0716,-12.9943 -44.3974,-44.3974 l -212.2416,-397.4115 q -15.1601,-27.0716 -31.4031,-34.6517 -16.2429,-8.6629 -48.7289,-8.6629 h -64.9719 v 497.0351 h -335.6881 V 1548.8403 Z"
         style="font-weight:900;font-size:2165.73px;line-height:1.25;font-family:Lato;-inkscape-font-specification:'Lato Heavy';text-align:center;text-anchor:middle;stroke-width:135.358"
         id="path6011" />
    </clipPath>
    <filter
       y="-0.46322578"
       height="1.8662018"
       id="filter6023">
      <feGaussianBlur
         stdDeviation="4.800000190734863"
         id="feGaussianBlur6014" />
    </filter>
    <clipPath
       id="clipPath880">
      <path
         d="m -1192.6055,2292.7685 q -12.9944,20.5745 -28.1545,29.2374 -14.0772,8.6629 -36.8174,8.6629 -23.823,0 -47.646,-9.7458 -23.8231,-10.8286 -51.9776,-22.7402 -27.0716,-11.9115 -61.7233,-21.6573 -34.6516,-10.8286 -79.0491,-10.8286 -63.889,0 -98.5407,24.9059 -33.5688,23.823 -33.5688,67.1376 0,31.4031 21.6573,51.9775 22.7401,20.5745 59.5575,36.8174 36.8175,15.1602 83.3806,29.2374 46.5632,14.0772 95.2922,31.4031 48.7289,17.3258 95.2921,41.1489 46.5632,22.7401 83.3806,57.3918 36.8174,33.5688 58.4747,82.2977 22.7402,48.729 22.7402,116.9495 0,83.3806 -30.3203,153.7668 -30.3202,70.3862 -90.9606,121.2809 -59.5576,50.8946 -148.3525,79.0491 -87.7121,28.1545 -202.4958,28.1545 -57.3918,0 -114.7837,-10.8286 -57.3918,-10.8287 -111.5351,-29.2374 -53.0603,-18.4087 -98.5407,-43.3146 -45.4803,-25.9888 -77.9662,-55.2261 l 77.9662,-123.4466 q 14.0773,-21.6573 33.5688,-33.5688 19.4916,-12.9944 50.8947,-12.9944 29.2374,0 51.9775,12.9944 23.8231,12.9943 50.8947,28.1544 27.0716,15.1602 62.8061,28.1545 36.8175,12.9944 92.0436,12.9944 38.9831,0 66.0547,-7.58 27.0717,-8.663 43.3146,-22.7402 16.243,-14.0772 23.8231,-31.4031 7.58,-17.3258 7.58,-35.7345 0,-33.5688 -22.7401,-55.2261 -22.7402,-21.6573 -59.5576,-36.8175 -36.8174,-16.2429 -84.4635,-29.2373 -46.5632,-14.0773 -95.2921,-31.4031 -48.7289,-17.3258 -96.375,-41.1489 -46.5632,-24.9059 -83.3806,-61.7233 -36.8174,-37.9002 -59.5576,-92.0435 -22.7401,-54.1432 -22.7401,-131.0267 0,-71.469 27.0716,-135.3581 28.1545,-64.9719 83.3806,-113.7008 55.2261,-48.7289 138.6067,-76.8834 83.3806,-29.2374 194.9157,-29.2374 60.6404,0 116.9494,10.8287 57.3919,10.8286 107.2037,30.3202 49.8118,19.4916 90.9606,46.5632 41.1489,25.9887 72.552,57.3918 z"
         style="font-weight:900;font-size:2165.73px;line-height:1.25;font-family:Lato;-inkscape-font-specification:'Lato Heavy';text-align:center;text-anchor:middle;stroke-width:135.358"
         id="path6017" />
    </clipPath>
    <filter
       x="-0.76304853"
       y="-0.27434531"
       height="1.5656872"
       width="2.4895217"
       id="filter2011">
      <feGaussianBlur
         stdDeviation="4.800000190734863"
         id="feGaussianBlur6020" />
    </filter>
    <clipPath
       id="clipPath9114">
      <path
         d="m -116.2365,2313.343 q -15.16011,18.4087 -29.23736,29.2373 -14.07724,10.8287 -40.066,10.8287 -24.90589,0 -45.48033,-11.9116 -19.49157,-11.9115 -44.39746,-25.9887 -24.9059,-15.1601 -58.47471,-27.0716 -33.56882,-11.9116 -83.38061,-11.9116 -61.7233,0 -107.20363,22.7402 -44.39747,22.7402 -73.63482,64.9719 -29.23736,42.2317 -43.3146,103.955 -14.07725,60.6405 -14.07725,137.5239 0,161.3469 61.72331,247.9761 62.80617,86.6292 172.17553,86.6292 58.47471,0 92.04353,-14.0773 34.65168,-15.1601 58.47471,-32.4859 23.82303,-18.4087 43.3146,-33.5688 20.57443,-15.1601 50.89465,-15.1601 40.066,0 60.64044,29.2373 l 97.457848,120.198 q -51.977519,59.5576 -109.369368,97.4579 -57.39184,36.8174 -118.03228,58.4747 -59.55757,20.5744 -120.19801,28.1545 -60.64044,8.6629 -118.03229,8.6629 -102.87217,0 -197.08143,-38.9831 -93.12638,-38.9832 -164.59547,-112.618 -70.38623,-74.7177 -112.61796,-183.0042 -41.14887,-108.2865 -41.14887,-246.8932 0,-121.2809 35.73454,-226.3188 36.81741,-106.1208 107.20364,-183.0042 71.46909,-77.9662 175.42412,-122.3637 105.03791,-44.3975 242.56176,-44.3975 132.10953,0 231.73311,42.2318 99.62358,42.2317 179.755589,123.4466 z"
         style="font-weight:900;font-size:2165.73px;line-height:1.25;font-family:Lato;-inkscape-font-specification:'Lato Heavy';text-align:center;text-anchor:middle;stroke-width:135.358"
         id="path6023" />
    </clipPath>
    <filter
       x="-0.40146786"
       y="-1.9018224"
       height="4.8094435"
       width="1.7950118"
       id="filter9827">
      <feGaussianBlur
         stdDeviation="4.800000190734863"
         id="feGaussianBlur6026" />
    </filter>
    <clipPath
       id="clipPath1">
      <path
         d="m 901.65674,3169.8892 q -47.64606,0 -72.55195,-12.9944 -23.82303,-12.9944 -40.06601,-54.1433 l -23.82303,-61.7233 q -42.23173,35.7346 -81.21487,62.8062 -38.98314,27.0716 -81.21488,46.5632 -41.14887,18.4087 -88.79492,27.0716 -46.5632,9.7458 -103.95504,9.7458 -76.88342,0 -139.68959,-19.4916 -62.80617,-20.5744 -107.20363,-59.5575 -43.3146,-38.9832 -67.137631,-96.375 -23.82303,-58.4747 -23.82303,-134.2753 0,-59.5576 30.320221,-122.3637 30.32022,-62.8062 105.0379,-113.7009 74.71769,-51.9775 201.41289,-86.6292 126.6952,-34.6516 319.44517,-38.9831 v -47.6461 q 0,-98.5407 -41.14887,-141.8553 -40.066,-44.3974 -114.78369,-44.3974 -59.55757,0 -97.45784,12.9943 -37.90028,12.9944 -68.2205,29.2374 -29.23735,16.243 -57.39184,29.2374 -28.15449,12.9943 -67.13763,12.9943 -34.65168,0 -59.55758,-16.2429 -23.82303,-17.3259 -37.90027,-42.2318 l -60.64044,-105.0379 q 101.78931,-89.8778 225.23592,-133.1924 124.52947,-44.3974 266.38478,-44.3974 101.78931,0 183.00419,33.5688 82.29774,32.4859 138.60672,92.0435 57.39184,58.4747 87.71211,139.6896 30.3202,81.2149 30.3202,177.5898 v 701.6966 z M 516.1568,2965.2277 q 64.9719,0 113.70083,-22.7402 48.72892,-22.7402 98.54071,-73.6348 v -155.9326 q -100.70644,4.3315 -165.67834,17.3259 -64.9719,12.9944 -102.87217,32.4859 -37.90028,19.4916 -53.06039,44.3975 -14.07724,24.9059 -14.07724,54.1432 0,57.3919 31.40308,81.2149 31.40309,22.7402 92.04352,22.7402 z"
         style="font-weight:900;font-size:2165.73px;line-height:1.25;font-family:Lato;-inkscape-font-specification:'Lato Heavy';text-align:center;text-anchor:middle;stroke-width:135.358"
         id="path6029" />
    </clipPath>
    <filter
       y="-0.96725911"
       height="2.9845004"
       id="filter3188">
      <feGaussianBlur
         stdDeviation="4.800000190734863"
         id="feGaussianBlur6032" />
    </filter>
    <clipPath
       id="clipPath3709">
      <path
         d="M 1293.653,3526.1517 V 2046.9582 h 207.9101 q 31.4031,0 51.9775,14.0772 21.6573,14.0773 30.3203,42.2317 l 24.9059,82.2978 q 32.4859,-35.7346 69.3033,-64.9719 37.9003,-29.2374 80.132,-49.8118 43.3146,-21.6573 92.0436,-33.5688 49.8117,-11.9115 108.2864,-11.9115 87.7121,0 162.4298,38.9831 74.7177,38.9831 128.8609,112.618 54.1433,73.6348 84.4635,180.8384 31.4031,106.1208 31.4031,241.4789 0,126.6952 -35.7346,233.8988 -34.6516,107.2037 -98.5407,186.2528 -62.8061,79.0492 -151.6011,123.4466 -87.712,44.3975 -194.9157,44.3975 -87.712,0 -147.2696,-24.9059 -59.5576,-24.9059 -108.2865,-67.1376 v 430.9802 z m 547.9297,-1244.2118 q -36.8174,0 -67.1376,7.58 -29.2374,6.4972 -55.2261,19.4916 -24.9059,12.9944 -46.5632,33.5688 -21.6573,19.4916 -43.3146,45.4803 v 476.4606 q 37.9003,42.2318 82.2977,59.5576 44.3975,16.243 93.1264,16.243 46.5632,0 85.5464,-18.4087 38.9831,-18.4087 67.1376,-58.4747 29.2373,-41.1489 45.4803,-106.1208 16.243,-64.9719 16.243,-158.0983 0,-88.7949 -12.9944,-149.4354 -12.9944,-60.6404 -36.8174,-97.4578 -22.7402,-37.9003 -55.2261,-54.1433 -32.486,-16.2429 -72.552,-16.2429 z"
         style="font-weight:900;font-size:2165.73px;line-height:1.25;font-family:Lato;-inkscape-font-specification:'Lato Heavy';text-align:center;text-anchor:middle;stroke-width:135.358"
         id="path6035" />
    </clipPath>
    <filter
       x="-0.51957071"
       width="2.0456853"
       id="filter9908">
      <feGaussianBlur
         stdDeviation="4.800000190734863"
         id="feGaussianBlur6038" />
    </filter>
    <clipPath
       id="clipPath4399">
      <path
         d="m 3026.2351,2029.6323 q 111.5351,0 203.5787,34.6517 93.1263,34.6517 159.1811,100.7064 67.1376,66.0548 103.9551,162.4298 37.9002,95.2921 37.9002,216.573 0,37.9003 -3.2486,61.7233 -3.2486,23.823 -11.9115,37.9003 -8.6629,14.0772 -23.823,19.4915 -14.0773,5.4144 -36.8174,5.4144 h -647.5533 q 16.243,140.7724 85.5463,204.6615 69.3034,62.8061 178.6728,62.8061 58.4747,0 100.7064,-14.0772 42.2317,-14.0773 74.7177,-31.4031 33.5688,-17.3258 60.6404,-31.4031 28.1545,-14.0772 58.4747,-14.0772 40.0661,0 60.6405,29.2373 l 97.4578,120.198 q -51.9775,59.5576 -112.6179,97.4579 -59.5576,36.8174 -123.4466,58.4747 -62.8062,20.5744 -126.6952,28.1545 -62.8062,8.6629 -120.1981,8.6629 -118.0322,0 -221.9873,-37.9003 -102.8721,-38.9831 -180.8384,-114.7837 -76.8834,-75.8005 -122.3638,-188.4185 -44.3974,-112.6179 -44.3974,-262.0533 0,-112.618 37.9002,-213.3244 38.9832,-100.7064 110.4523,-176.507 72.5519,-75.8005 174.3412,-120.198 102.8722,-44.3975 231.7331,-44.3975 z m 6.4972,231.7331 q -96.375,0 -150.5182,55.2261 -54.1433,54.1433 -71.4691,157.0155 h 419.0688 q 0,-40.066 -10.8287,-77.9663 -9.7458,-37.9003 -33.5688,-67.1376 -22.7402,-30.3203 -60.6404,-48.729 -37.9003,-18.4087 -92.0436,-18.4087 z"
         style="font-weight:900;font-size:2165.73px;line-height:1.25;font-family:Lato;-inkscape-font-specification:'Lato Heavy';text-align:center;text-anchor:middle;stroke-width:135.358"
         id="path6041" />
    </clipPath>
    <filter
       x="-0.45863903"
       width="1.9460484"
       id="filter4001">
      <feGaussianBlur
         stdDeviation="4.800000190734863"
         id="feGaussianBlur6044" />
    </filter>
    <clipPath
       id="clipPath9811">
      <path
         d="m -3473.8101,1887.4899 v -59.9118 h 47.4773 q 24.869,0 40.6947,-12.4345 16.9563,-12.4346 16.9563,-61.0422 v -540.3363 q 0,-48.6077 -16.9563,-61.0422 -15.8257,-12.4345 -40.6947,-12.4345 h -47.4773 v -59.9117 h 389.9917 v 59.9117 h -47.4772 q -24.8691,0 -41.8252,12.4345 -15.8258,12.4345 -15.8258,61.0422 v 540.3363 q 0,48.6076 15.8258,61.0422 16.9561,12.4345 41.8252,12.4345 h 47.4772 v 59.9118 z"
         style="font-weight:bold;font-size:2165.73px;line-height:1.25;font-family:'Noto Serif';-inkscape-font-specification:'Noto Serif Bold';text-align:center;text-anchor:middle;stroke-width:70.6508"
         id="path19432" />
    </clipPath>
    <filter
       x="-1.0435882"
       width="3.0176448"
       id="filter3292"
       y="-inf"
       height="inf">
      <feGaussianBlur
         stdDeviation="4.800000190734863"
         id="feGaussianBlur19435" />
    </filter>
    <clipPath
       id="clipPath3044">
      <path
         d="m -3029.5598,1887.4899 v -59.9118 h 2.2609 q 38.434,0 63.303,-13.5649 24.869,-13.5649 24.869,-64.4335 v -334.6015 q 0,-47.4772 -22.6082,-59.9117 -21.4778,-13.565 -58.7813,-13.565 h -3.3913 v -59.9118 h 237.3862 l 14.6954,80.2592 h 5.652 q 22.6083,-41.8252 48.6077,-62.1726 27.1299,-20.3474 57.6509,-25.9994 30.5212,-6.7825 66.6943,-6.7825 87.0416,0 136.7796,51.9989 49.7382,51.9989 49.7382,166.1703 v 262.2553 q 0,51.9989 18.0865,66.6943 19.217,13.5649 57.651,13.5649 h 3.3912 v 59.9118 h -250.9512 v -371.9051 q 0,-73.4767 -20.3474,-113.0411 -20.3474,-39.5644 -70.0854,-39.5644 -37.3036,0 -58.7814,24.869 -21.4778,23.7387 -30.5211,64.4334 -9.0433,39.5645 -9.0433,85.9112 v 215.9085 q 0,47.4773 21.4779,61.0422 22.6082,12.4345 59.9117,12.4345 h 3.3912 v 59.9118 z"
         style="font-weight:bold;font-size:2165.73px;line-height:1.25;font-family:'Noto Serif';-inkscape-font-specification:'Noto Serif Bold';text-align:center;text-anchor:middle;stroke-width:70.6508"
         id="path19438" />
    </clipPath>
    <filter
       x="-1.8274337"
       y="-1.2173913"
       height="3.4347827"
       width="4.6409752"
       id="filter8658">
      <feGaussianBlur
         stdDeviation="4.800000190734863"
         id="feGaussianBlur19441" />
    </filter>
    <clipPath
       id="clipPath9591">
      <path
         d="m -2278.9673,1887.4899 v -59.9118 h 13.5649 q 16.9561,0 35.0427,-4.5216 19.217,-5.6521 31.6516,-21.4778 13.5648,-15.8258 13.5648,-47.4773 v -596.8569 q 0,-29.3906 -13.5648,-44.0859 -13.565,-15.8258 -32.7819,-20.3474 -18.0866,-4.5217 -33.9124,-4.5217 h -13.5649 v -59.9118 h 265.6465 v 436.3386 q 0,20.3473 -1.1304,48.6077 -1.1305,27.1298 -3.3913,48.6076 -1.1304,20.3474 -1.1304,20.3474 l 142.4318,-159.3879 q 19.2169,-21.4778 24.869,-33.9123 5.6521,-12.4346 5.6521,-20.3475 0,-30.521 -58.7814,-30.521 v -56.5206 h 284.8635 v 56.5206 q -38.4339,0 -76.8679,23.7386 -38.434,22.6082 -82.52,72.3463 l -71.2158,81.3896 150.3446,223.8213 q 29.3906,45.2164 59.9117,66.6942 30.5211,21.4778 57.651,21.4778 h 3.3912 v 59.9118 h -15.8257 q -62.1727,0 -105.1282,-2.2608 -41.8252,-3.3913 -71.2159,-12.4346 -29.3907,-10.1737 -51.9989,-30.5211 -22.6082,-20.3474 -44.086,-55.3901 l -100.6066,-158.2575 -45.2164,33.9123 v 91.5633 q 0,31.6515 12.4345,47.4773 13.565,15.8257 31.6515,21.4778 19.217,4.5216 36.1732,4.5216 h 13.5649 v 59.9118 z"
         style="font-weight:bold;font-size:2165.73px;line-height:1.25;font-family:'Noto Serif';-inkscape-font-specification:'Noto Serif Bold';text-align:center;text-anchor:middle;stroke-width:70.6508"
         id="path19444" />
    </clipPath>
    <filter
       x="-1.3290427"
       y="-3.621874"
       height="8.2767414"
       width="3.5722076"
       id="filter268">
      <feGaussianBlur
         stdDeviation="4.800000190734863"
         id="feGaussianBlur19447" />
    </filter>
    <clipPath
       id="clipPath1104">
      <path
         d="m -1318.1184,1898.794 q -123.2148,0 -175.2137,-37.3035 -51.9989,-38.434 -51.9989,-94.9545 0,-37.3036 18.0865,-55.3902 18.0866,-18.0866 42.9557,-23.7386 24.869,-6.7825 44.086,-6.7825 0,70.0855 32.7819,110.7802 33.9123,40.6948 89.3025,40.6948 58.7813,0 84.7807,-22.6082 27.1299,-22.6082 27.1299,-54.2597 0,-37.3036 -29.3907,-61.0422 -29.3907,-23.7386 -109.6499,-51.9988 -91.5632,-31.6515 -140.1709,-74.6072 -48.6076,-44.086 -48.6076,-119.8235 0,-90.4328 66.6942,-134.5188 66.6943,-45.2164 176.3441,-45.2164 71.2159,0 114.1715,15.8257 44.086,14.6953 63.303,39.5643 20.3473,23.7387 20.3473,49.7381 0,38.434 -27.1298,58.7814 -25.9995,19.2169 -88.172,19.2169 0,-56.5205 -24.8691,-87.0416 -24.869,-31.6515 -74.6071,-31.6515 -36.1731,0 -64.4334,18.0865 -27.1298,16.9563 -27.1298,51.999 0,23.7387 12.4345,41.8252 13.5649,18.0866 47.4772,35.0427 33.9124,16.9562 94.9545,38.434 75.7375,25.9994 123.2148,68.9551 48.6077,41.8251 48.6077,113.041 0,93.8241 -64.4334,146.9534 -64.4335,51.9989 -180.8657,51.9989 z"
         style="font-weight:bold;font-size:2165.73px;line-height:1.25;font-family:'Noto Serif';-inkscape-font-specification:'Noto Serif Bold';text-align:center;text-anchor:middle;stroke-width:70.6508"
         id="path19450" />
    </clipPath>
    <filter
       x="-0.91321174"
       y="-2.4329898"
       height="5.8399796"
       width="2.745415"
       id="filter9732">
      <feGaussianBlur
         stdDeviation="4.800000190734863"
         id="feGaussianBlur19453" />
    </filter>
    <clipPath
       id="clipPath6540">
      <path
         d="m -694.13089,1898.794 q -82.51998,0 -145.82298,-29.3907 -63.303,-30.5211 -99.47614,-98.3458 -35.04273,-68.955 -35.04273,-184.2568 0,-122.0844 36.17314,-191.0395 37.30355,-70.0854 99.47614,-99.4761 63.303,-29.3907 141.30134,-29.3907 109.64984,0 166.17037,35.0428 57.65094,33.9123 57.65094,83.6503 0,24.869 -12.43451,46.3469 -11.30411,21.4778 -42.95561,36.1732 -31.6515,13.5648 -90.43285,13.5648 0,-39.5643 -6.78247,-72.3463 -6.78246,-32.7819 -22.60821,-53.1293 -15.82575,-20.3473 -44.08602,-20.3473 -32.78191,0 -57.65094,22.6082 -23.73863,21.4777 -37.30356,76.8679 -12.43452,54.2597 -12.43452,150.3446 0,114.1715 31.6515,171.8224 31.65151,56.5206 102.86738,56.5206 58.78135,0 101.73696,-25.9995 42.9556,-27.1298 62.17259,-65.5638 13.56492,9.0433 20.34739,22.6082 6.78247,13.565 6.78247,29.3907 0,28.2602 -23.73863,57.6509 -22.60822,28.2603 -71.21587,47.4773 -48.60766,19.217 -124.34518,19.217 z"
         style="font-weight:bold;font-size:2165.73px;line-height:1.25;font-family:'Noto Serif';-inkscape-font-specification:'Noto Serif Bold';text-align:center;text-anchor:middle;stroke-width:70.6508"
         id="path19456" />
    </clipPath>
    <filter
       x="-1.2744718"
       y="-0.81179363"
       height="2.5287218"
       width="3.6030869"
       id="filter4943">
      <feGaussianBlur
         stdDeviation="4.800000190734863"
         id="feGaussianBlur19459" />
    </filter>
    <clipPath
       id="clipPath9588">
      <path
         d="m -203.53207,1898.794 q -74.60711,0 -126.60599,-45.2164 -50.86851,-45.2165 -50.86851,-139.0406 0,-91.5632 62.17263,-135.6492 63.303,-44.0861 191.03936,-48.6077 l 92.693695,-3.3913 v -62.1725 q 0,-56.5205 -12.434486,-92.6937 -11.304121,-36.1731 -57.650969,-36.1731 -42.95562,0 -59.91177,35.0427 -15.82571,35.0427 -15.82571,87.0416 -75.73755,0 -114.17151,-16.9562 -38.43396,-16.9561 -38.43396,-58.7813 0,-41.8252 31.6515,-66.6942 31.6515,-24.8691 83.65037,-36.1732 53.12931,-12.4345 117.56274,-12.4345 118.693103,0 177.474506,42.9557 59.911764,42.9555 59.911764,149.2141 v 288.2547 q 0,46.3469 14.69529,63.303 14.69535,16.9562 53.1293,16.9562 h 4.52167 v 59.9118 H -1.1885219 l -23.7386741,-77.9984 h -10.173689 q -24.869039,30.5211 -47.477214,50.8685 -21.477811,19.217 -49.738081,28.2603 -28.26027,10.1737 -71.21589,10.1737 z m 62.17257,-82.52 q 48.607712,0 76.867914,-38.4339 29.390701,-39.5645 29.390701,-106.2586 v -84.7808 l -50.868444,3.3912 q -67.824661,3.3912 -93.824131,36.1731 -25.9994,31.6515 -25.9994,92.6937 0,97.2153 64.43336,97.2153 z"
         style="font-weight:bold;font-size:2165.73px;line-height:1.25;font-family:'Noto Serif';-inkscape-font-specification:'Noto Serif Bold';text-align:center;text-anchor:middle;stroke-width:70.6508"
         id="path19462" />
    </clipPath>
    <filter
       x="-1.3067296"
       y="-0.94954932"
       height="2.9241806"
       width="3.6352913"
       id="filter6776">
      <feGaussianBlur
         stdDeviation="4.800000190734863"
         id="feGaussianBlur19465" />
    </filter>
    <clipPath
       id="clipPath8281">
      <path
         d="m 259.93717,2158.7884 v -59.9117 h 13.56498 q 16.95608,0 35.04273,-5.6521 19.21695,-4.5216 31.65143,-20.3473 13.56499,-15.8258 13.56499,-47.4773 v -604.7697 q 0,-51.999 -21.47781,-65.5638 -21.47788,-13.565 -54.25974,-13.565 h -7.91283 v -59.9118 h 221.56042 l 20.34745,88.1721 h 4.52159 q 24.86911,-44.086 65.5638,-71.2159 41.82525,-28.2603 107.38905,-28.2603 113.04107,0 171.82241,75.7376 59.91177,75.7374 59.91177,240.7775 0,163.9095 -58.78134,239.647 -58.78133,74.6071 -168.43118,74.6071 -64.43343,0 -105.12819,-23.7386 -39.56439,-24.8691 -64.43342,-66.6943 h -7.9129 q 2.26087,15.8258 4.52167,42.9557 2.26086,25.9994 3.39123,50.8684 1.13036,25.9995 1.13036,42.9556 V 2025.4 q 0,31.6515 12.43455,47.4773 13.56492,15.8257 31.6515,20.3473 19.21701,5.6521 36.17316,5.6521 h 24.86904 v 59.9117 z m 380.94841,-341.384 q 56.52054,0 81.38958,-56.5205 24.86904,-57.6509 24.86904,-172.9529 0,-113.0411 -24.86904,-172.9528 -24.86904,-59.9117 -80.25921,-59.9117 -67.8246,0 -92.69364,59.9117 -23.73867,59.9117 -23.73867,171.8225 0,117.5626 23.73867,174.0832 24.86904,56.5205 91.56327,56.5205 z"
         style="font-weight:bold;font-size:2165.73px;line-height:1.25;font-family:'Noto Serif';-inkscape-font-specification:'Noto Serif Bold';text-align:center;text-anchor:middle;stroke-width:70.6508"
         id="path19468" />
    </clipPath>
    <filter
       x="-0.69593059"
       y="-2.8827369"
       height="6.8014649"
       width="2.4650898"
       id="filter3172">
      <feGaussianBlur
         stdDeviation="4.800000190734863"
         id="feGaussianBlur19471" />
    </filter>
    <clipPath
       id="clipPath2529">
      <path
         d="m 1320.2632,1898.794 q -144.6925,0 -219.2996,-81.3896 -73.4767,-81.3896 -73.4767,-229.4734 0,-159.3879 72.3463,-239.6471 73.4766,-81.3895 207.9955,-81.3895 123.2148,0 193.3002,68.9551 71.2159,68.955 71.2159,203.4739 v 57.6509 h -370.7747 q 3.3912,114.1715 41.8252,166.1704 39.5645,50.8685 109.6498,50.8685 58.7814,0 99.4762,-25.9995 40.6948,-27.1298 59.9118,-65.5638 30.5211,16.9562 30.5211,55.3902 0,48.6076 -54.2597,84.7807 -54.2598,36.1732 -168.4313,36.1732 z M 1203.831,1524.6281 h 195.561 q 0,-87.0417 -20.3474,-135.6493 -20.3474,-48.6077 -68.955,-48.6077 -47.4773,0 -75.7376,47.4772 -28.2602,47.4773 -30.521,136.7798 z"
         style="font-weight:bold;font-size:2165.73px;line-height:1.25;font-family:'Noto Serif';-inkscape-font-specification:'Noto Serif Bold';text-align:center;text-anchor:middle;stroke-width:70.6508"
         id="path19474" />
    </clipPath>
    <filter
       x="-0.79273466"
       width="2.6045283"
       id="filter3463"
       y="-inf"
       height="inf">
      <feGaussianBlur
         stdDeviation="4.800000190734863"
         id="feGaussianBlur19477" />
    </filter>
  </defs>
  <g
     id="layer1"
     transform="translate(3477.5896,148.6547)">
    <text
       xml:space="preserve"
       style="font-style:normal;font-variant:normal;font-weight:bold;font-stretch:normal;font-size:1130.41px;line-height:1.25;font-family:'Noto Serif';-inkscape-font-specification:'Noto Serif Bold';text-align:center;text-anchor:middle;stroke-width:70.6508"
       x="-926.57135"
       y="714.23645"
       id="text2387-2"><tspan
         id="tspan2385-6"
         x="-926.57147"
         y="714.23645"
         style="font-style:normal;font-variant:normal;font-weight:bold;font-stretch:normal;font-family:'Noto Serif';-inkscape-font-specification:'Noto Serif Bold';stroke-width:70.6508">Inkscape</tspan></text>
    <g
       clip-path="url(#clipPath9811)"
       id="g19515">
      <g
         id="g19513">
        <path
           d="m -3188.95,1754.1 q 0,48.61 15.83,61.04"
           style="fill:none;stroke:#ffffff;stroke-width:10;stroke-opacity:1;filter:url(#filter3292)"
           id="path19491" />
        <path
           d="m -3083.82,1080.38 v 59.91 m -105.13,73.48 v 540.33 m 105.13,73.48 v 59.91"
           style="fill:none;stroke:#ececec;stroke-width:10;stroke-opacity:1;filter:url(#filter3292)"
           id="path19493" />
        <path
           d="m -3173.12,1152.72 q -15.83,12.44 -15.83,61.05"
           style="fill:none;stroke:#d8d8d8;stroke-width:10;stroke-opacity:1;filter:url(#filter3292)"
           id="path19495" />
        <path
           d="m -3173.12,1815.14 q 16.96,12.44 41.82,12.44"
           style="fill:none;stroke:#b1b1b1;stroke-width:10;stroke-opacity:1;filter:url(#filter3292)"
           id="path19497" />
        <path
           d="m -3473.81,1827.58 h 47.48 m -47.48,-747.2 h 389.99 m -47.48,747.2 h 47.48"
           style="fill:none;stroke:#949494;stroke-width:10;stroke-opacity:1;filter:url(#filter3292)"
           id="path19499" />
        <path
           d="m -3426.33,1827.58 q 24.87,0 40.69,-12.44 m 254.34,-674.85 q -24.86,0 -41.82,12.43"
           style="fill:none;stroke:#808080;stroke-width:10;stroke-opacity:1;filter:url(#filter3292)"
           id="path19501" />
        <path
           d="m -3426.33,1140.29 h -47.48 m 389.99,0 h -47.48"
           style="fill:none;stroke:#6c6c6c;stroke-width:10;stroke-opacity:1;filter:url(#filter3292)"
           id="path19503" />
        <path
           d="m -3385.64,1152.72 q -15.82,-12.43 -40.69,-12.43"
           style="fill:none;stroke:#4f4f4f;stroke-width:10;stroke-opacity:1;filter:url(#filter3292)"
           id="path19505" />
        <path
           d="m -3385.64,1815.14 q 16.96,-12.43 16.96,-61.04"
           style="fill:none;stroke:#282828;stroke-width:10;stroke-opacity:1;filter:url(#filter3292)"
           id="path19507" />
        <path
           d="m -3473.81,1887.49 v -59.91 m 105.13,-73.48 v -540.33 m -105.13,-73.48 v -59.91"
           style="fill:none;stroke:#141414;stroke-width:10;stroke-opacity:1;filter:url(#filter3292)"
           id="path19509" />
        <path
           d="m -3368.68,1213.77 q 0,-48.61 -16.96,-61.05"
           style="fill:none;stroke:#000000;stroke-width:10;stroke-opacity:1;filter:url(#filter3292)"
           id="path19511" />
      </g>
    </g>
    <g
       clip-path="url(#clipPath3044)"
       id="g19553">
      <g
         id="g19551">
        <path
           d="m -2786.52,1281.59 14.69,80.26 m 315.39,-42.96 q 49.74,52 49.74,166.17 m 0,262.26 q 0,52 18.08,66.69 m -378.68,-59.91 q 0,47.48 21.47,61.04"
           style="fill:none;stroke:#ffffff;stroke-width:10;stroke-opacity:1;filter:url(#filter8658)"
           id="path19517" />
        <path
           d="m -2406.7,1485.06 v 262.26 m 79.13,80.26 v 59.91 m -439.73,-349.3 v 215.91 m 84.78,73.48 v 59.91"
           style="fill:none;stroke:#ececec;stroke-width:10;stroke-opacity:1;filter:url(#filter8658)"
           id="path19519" />
        <path
           d="m -2758.26,1452.28 q -9.04,39.57 -9.04,85.91"
           style="fill:none;stroke:#e2e2e2;stroke-width:10;stroke-opacity:1;filter:url(#filter8658)"
           id="path19521" />
        <path
           d="m -2727.74,1387.85 q -21.48,23.74 -30.52,64.43"
           style="fill:none;stroke:#c5c5c5;stroke-width:10;stroke-opacity:1;filter:url(#filter8658)"
           id="path19523" />
        <path
           d="m -2593.22,1266.89 q 87.04,0 136.78,52"
           style="fill:none;stroke:#b1b1b1;stroke-width:10;stroke-opacity:1;filter:url(#filter8658)"
           id="path19525" />
        <path
           d="m -2388.62,1814.01 q 19.22,13.57 57.65,13.57 m -414.86,-12.44 q 22.61,12.44 59.92,12.44"
           style="fill:none;stroke:#a7a7a7;stroke-width:10;stroke-opacity:1;filter:url(#filter8658)"
           id="path19527" />
        <path
           d="m -3029.56,1827.58 h 2.26 m 3.39,-545.99 h 237.39 m 14.69,80.26 h 5.66 m 435.2,465.73 h 3.4 m -358.34,0 h 3.39"
           style="fill:none;stroke:#949494;stroke-width:10;stroke-opacity:1;filter:url(#filter8658)"
           id="path19529" />
        <path
           d="m -2659.92,1273.68 q 30.53,-6.79 66.7,-6.79 m -75.74,96.09 q -37.3,0 -58.78,24.87"
           style="fill:none;stroke:#8a8a8a;stroke-width:10;stroke-opacity:1;filter:url(#filter8658)"
           id="path19531" />
        <path
           d="m -3027.3,1827.58 q 38.44,0 63.3,-13.57"
           style="fill:none;stroke:#808080;stroke-width:10;stroke-opacity:1;filter:url(#filter8658)"
           id="path19533" />
        <path
           d="m -2717.57,1299.68 q 27.13,-20.35 57.65,-26"
           style="fill:none;stroke:#767676;stroke-width:10;stroke-opacity:1;filter:url(#filter8658)"
           id="path19535" />
        <path
           d="m -3020.52,1341.5 h -3.39 m 696.34,545.99 h -250.96"
           style="fill:none;stroke:#6c6c6c;stroke-width:10;stroke-opacity:1;filter:url(#filter8658)"
           id="path19537" />
        <path
           d="m -2961.74,1355.07 q -21.47,-13.57 -58.78,-13.57"
           style="fill:none;stroke:#595959;stroke-width:10;stroke-opacity:1;filter:url(#filter8658)"
           id="path19539" />
        <path
           d="m -2766.17,1361.85 q 22.6,-41.83 48.6,-62.17"
           style="fill:none;stroke:#4f4f4f;stroke-width:10;stroke-opacity:1;filter:url(#filter8658)"
           id="path19541" />
        <path
           d="m -2598.87,1402.54 q -20.35,-39.56 -70.09,-39.56"
           style="fill:none;stroke:#3b3b3b;stroke-width:10;stroke-opacity:1;filter:url(#filter8658)"
           id="path19543" />
        <path
           d="m -2964,1814.01 q 24.87,-13.56 24.87,-64.43"
           style="fill:none;stroke:#323232;stroke-width:10;stroke-opacity:1;filter:url(#filter8658)"
           id="path19545" />
        <path
           d="m -3029.56,1887.49 v -59.91 m 90.43,-78 v -334.6 m -84.78,-73.48 v -59.91 m 445.38,605.9 v -371.91"
           style="fill:none;stroke:#141414;stroke-width:10;stroke-opacity:1;filter:url(#filter8658)"
           id="path19547" />
        <path
           d="m -2939.13,1414.98 q 0,-47.48 -22.61,-59.91 m 383.21,160.51 q 0,-73.47 -20.34,-113.04"
           style="fill:none;stroke:#000000;stroke-width:10;stroke-opacity:1;filter:url(#filter8658)"
           id="path19549" />
      </g>
    </g>
    <g
       clip-path="url(#clipPath9591)"
       id="g19597">
      <g
         id="g19595">
        <path
           d="m -2013.32,1754.1 q 0,31.65 12.43,47.48"
           style="fill:none;stroke:#ffffff;stroke-width:10;stroke-opacity:1;filter:url(#filter268)"
           id="path19555" />
        <path
           d="m -2013.32,1028.38 v 436.34 m 0,0 q 0,20.34 -1.13,48.6 m 0,0 q -1.13,27.13 -3.39,48.61 m 0,0 q -1.13,20.35 -1.13,20.35 m 399.03,-300.69 v 56.52 m -230.6,177.47 150.34,223.83 m 120.96,88.17 v 59.91 m -434.08,-224.95 v 91.56 m 93.82,73.48 v 59.91"
           style="fill:none;stroke:#ececec;stroke-width:10;stroke-opacity:1;filter:url(#filter268)"
           id="path19557" />
        <path
           d="m -1700.2,1739.41 q 29.39,45.21 59.91,66.69"
           style="fill:none;stroke:#e2e2e2;stroke-width:10;stroke-opacity:1;filter:url(#filter268)"
           id="path19559" />
        <path
           d="m -2000.89,1801.58 q 13.57,15.82 31.66,21.48"
           style="fill:none;stroke:#c5c5c5;stroke-width:10;stroke-opacity:1;filter:url(#filter268)"
           id="path19561" />
        <path
           d="m -1779.33,1434.2 -71.21,81.38 m 210.25,290.52 q 30.53,21.48 57.66,21.48"
           style="fill:none;stroke:#b1b1b1;stroke-width:10;stroke-opacity:1;filter:url(#filter268)"
           id="path19563" />
        <path
           d="m -1696.81,1361.85 q -38.43,22.61 -82.52,72.35"
           style="fill:none;stroke:#a7a7a7;stroke-width:10;stroke-opacity:1;filter:url(#filter268)"
           id="path19565" />
        <path
           d="m -1968.1,1628.63 -45.22,33.91 m 44.09,160.52 q 19.21,4.52 36.17,4.52"
           style="fill:none;stroke:#9d9d9d;stroke-width:10;stroke-opacity:1;filter:url(#filter268)"
           id="path19567" />
        <path
           d="m -2278.97,1827.58 h 13.57 m -13.57,-799.2 h 265.65 m 108.52,253.21 h 284.86 m 37.31,545.99 h 3.39 m -353.82,0 h 13.56"
           style="fill:none;stroke:#949494;stroke-width:10;stroke-opacity:1;filter:url(#filter268)"
           id="path19569" />
        <path
           d="m -2265.4,1827.58 q 16.95,0 35.04,-4.52"
           style="fill:none;stroke:#8a8a8a;stroke-width:10;stroke-opacity:1;filter:url(#filter268)"
           id="path19571" />
        <path
           d="m -1619.94,1338.11 q -38.43,0 -76.87,23.74"
           style="fill:none;stroke:#808080;stroke-width:10;stroke-opacity:1;filter:url(#filter268)"
           id="path19573" />
        <path
           d="m -2265.4,1088.29 h -13.57 m 699.73,799.2 h -15.83 m 0,0 q -62.17,0 -105.13,-2.26"
           style="fill:none;stroke:#6c6c6c;stroke-width:10;stroke-opacity:1;filter:url(#filter268)"
           id="path19575" />
        <path
           d="m -2230.36,1823.06 q 19.22,-5.66 31.65,-21.48 m -32.78,-708.77 q -18.09,-4.52 -33.91,-4.52"
           style="fill:none;stroke:#636363;stroke-width:10;stroke-opacity:1;filter:url(#filter268)"
           id="path19577" />
        <path
           d="m -1700.2,1885.23 q -41.82,-3.39 -71.21,-12.44"
           style="fill:none;stroke:#595959;stroke-width:10;stroke-opacity:1;filter:url(#filter268)"
           id="path19579" />
        <path
           d="m -2018.97,1582.28 142.43,-159.39"
           style="fill:none;stroke:#4f4f4f;stroke-width:10;stroke-opacity:1;filter:url(#filter268)"
           id="path19581" />
        <path
           d="m -1876.54,1422.89 q 19.22,-21.48 24.87,-33.91 m 5.65,-20.35 q 0,-30.52 -58.78,-30.52"
           style="fill:none;stroke:#454545;stroke-width:10;stroke-opacity:1;filter:url(#filter268)"
           id="path19583" />
        <path
           d="m -2198.71,1113.16 q -13.56,-15.83 -32.78,-20.35 m 460.08,779.98 q -29.39,-10.17 -52,-30.52"
           style="fill:none;stroke:#3b3b3b;stroke-width:10;stroke-opacity:1;filter:url(#filter268)"
           id="path19585" />
        <path
           d="m -2198.71,1801.58 q 13.57,-15.83 13.57,-47.48 m 333.47,-365.12 q 5.65,-12.44 5.65,-20.35"
           style="fill:none;stroke:#282828;stroke-width:10;stroke-opacity:1;filter:url(#filter268)"
           id="path19587" />
        <path
           d="m -1823.41,1842.27 q -22.61,-20.34 -44.09,-55.39"
           style="fill:none;stroke:#1e1e1e;stroke-width:10;stroke-opacity:1;filter:url(#filter268)"
           id="path19589" />
        <path
           d="m -2278.97,1887.49 v -59.91 m 93.83,-73.48 v -596.86 m -93.83,-68.95 v -59.91 m 374.17,309.73 v -56.52 m 37.3,505.29 -100.6,-158.25"
           style="fill:none;stroke:#141414;stroke-width:10;stroke-opacity:1;filter:url(#filter268)"
           id="path19591" />
        <path
           d="m -2185.14,1157.24 q 0,-29.39 -13.57,-44.08"
           style="fill:none;stroke:#000000;stroke-width:10;stroke-opacity:1;filter:url(#filter268)"
           id="path19593" />
      </g>
    </g>
    <g
       clip-path="url(#clipPath1104)"
       id="g19631">
      <g
         id="g19629">
        <path
           d="m -1440.2,1680.62 q 0,70.09 32.78,110.78 m 7.91,-388.86 q 0,23.74 12.44,41.83"
           style="fill:none;stroke:#ffffff;stroke-width:10;stroke-opacity:1;filter:url(#filter9732)"
           id="path19599" />
        <path
           d="m -1113.51,1323.41 q 20.34,23.74 20.34,49.74 m -28.26,213.65 q 48.61,41.83 48.61,113.04"
           style="fill:none;stroke:#f6f6f6;stroke-width:10;stroke-opacity:1;filter:url(#filter9732)"
           id="path19601" />
        <path
           d="m -1387.07,1444.37 q 13.56,18.09 47.47,35.04 m 266.78,220.43 q 0,93.83 -64.43,146.96"
           style="fill:none;stroke:#cecece;stroke-width:10;stroke-opacity:1;filter:url(#filter9732)"
           id="path19603" />
        <path
           d="m -1176.82,1283.85 q 44.09,14.7 63.31,39.56 m 20.34,49.74 q 0,38.44 -27.13,58.78 m -252.08,-81.39 q -27.13,16.96 -27.13,52 m 154.87,115.31 q 75.74,25.99 123.21,68.95"
           style="fill:none;stroke:#c5c5c5;stroke-width:10;stroke-opacity:1;filter:url(#filter9732)"
           id="path19605" />
        <path
           d="m -1407.42,1791.4 q 33.91,40.7 89.3,40.7 m -21.48,-352.69 q 33.92,16.96 94.96,38.44"
           style="fill:none;stroke:#bbbbbb;stroke-width:10;stroke-opacity:1;filter:url(#filter9732)"
           id="path19607" />
        <path
           d="m -1290.99,1268.02 q 71.22,0 114.17,15.83"
           style="fill:none;stroke:#9d9d9d;stroke-width:10;stroke-opacity:1;filter:url(#filter9732)"
           id="path19609" />
        <path
           d="m -1484.29,1687.41 q 24.87,-6.79 44.09,-6.79"
           style="fill:none;stroke:#8a8a8a;stroke-width:10;stroke-opacity:1;filter:url(#filter9732)"
           id="path19611" />
        <path
           d="m -1318.12,1832.1 q 58.78,0 84.78,-22.61 m -233.99,-496.25 q 66.69,-45.22 176.34,-45.22 m 170.69,163.91 q -26,19.22 -88.17,19.22 m -99.47,-118.69 q -36.18,0 -64.44,18.08 m 235.13,496.26 q -64.44,51.99 -180.87,51.99"
           style="fill:none;stroke:#808080;stroke-width:10;stroke-opacity:1;filter:url(#filter9732)"
           id="path19613" />
        <path
           d="m -1527.24,1711.15 q 18.08,-18.09 42.95,-23.74"
           style="fill:none;stroke:#6c6c6c;stroke-width:10;stroke-opacity:1;filter:url(#filter9732)"
           id="path19615" />
        <path
           d="m -1318.12,1898.79 q -123.21,0 -175.21,-37.3"
           style="fill:none;stroke:#595959;stroke-width:10;stroke-opacity:1;filter:url(#filter9732)"
           id="path19617" />
        <path
           d="m -1235.6,1694.19 q -29.39,-23.74 -109.65,-52 m 111.91,-278.08 q -24.87,-31.65 -74.6,-31.65"
           style="fill:none;stroke:#454545;stroke-width:10;stroke-opacity:1;filter:url(#filter9732)"
           id="path19619" />
        <path
           d="m -1233.34,1809.49 q 27.13,-22.61 27.13,-54.26 m -139.04,-113.04 q -91.56,-31.65 -140.17,-74.61 m -48.61,-119.82 q 0,-90.43 66.7,-134.52"
           style="fill:none;stroke:#3b3b3b;stroke-width:10;stroke-opacity:1;filter:url(#filter9732)"
           id="path19621" />
        <path
           d="m -1545.33,1766.54 q 0,-37.31 18.09,-55.39"
           style="fill:none;stroke:#323232;stroke-width:10;stroke-opacity:1;filter:url(#filter9732)"
           id="path19623" />
        <path
           d="m -1493.33,1861.49 q -52,-38.43 -52,-94.95 m 339.12,-11.31 q 0,-37.3 -29.39,-61.04 m -249.82,-126.61 q -48.61,-44.08 -48.61,-119.82"
           style="fill:none;stroke:#0a0a0a;stroke-width:10;stroke-opacity:1;filter:url(#filter9732)"
           id="path19625" />
        <path
           d="m -1208.47,1451.15 q 0,-56.52 -24.87,-87.04"
           style="fill:none;stroke:#000000;stroke-width:10;stroke-opacity:1;filter:url(#filter9732)"
           id="path19627" />
      </g>
    </g>
    <g
       clip-path="url(#clipPath6540)"
       id="g19671">
      <g
         id="g19669">
        <path
           d="m -800.389,1585.67 q 0,114.17 31.651,171.82 m 287.124,-12.43 q 6.783,13.56 6.783,29.39"
           style="fill:none;stroke:#ffffff;stroke-width:10;stroke-opacity:1;filter:url(#filter4943)"
           id="path19633" />
        <path
           d="m -531.352,1301.94 q 57.651,33.91 57.651,83.65"
           style="fill:none;stroke:#ececec;stroke-width:10;stroke-opacity:1;filter:url(#filter4943)"
           id="path19635" />
        <path
           d="m -787.955,1435.33 q -12.434,54.26 -12.434,150.34 m 298.428,136.78 q 13.565,9.04 20.347,22.61"
           style="fill:none;stroke:#e2e2e2;stroke-width:10;stroke-opacity:1;filter:url(#filter4943)"
           id="path19637" />
        <path
           d="m -473.701,1385.59 q 0,24.87 -12.434,46.34"
           style="fill:none;stroke:#d8d8d8;stroke-width:10;stroke-opacity:1;filter:url(#filter4943)"
           id="path19639" />
        <path
           d="m -474.831,1774.45 q 0,28.26 -23.739,57.65"
           style="fill:none;stroke:#cecece;stroke-width:10;stroke-opacity:1;filter:url(#filter4943)"
           id="path19641" />
        <path
           d="m -750.651,1358.46 q -23.739,21.48 -37.304,76.87 m 19.217,322.16 q 31.652,56.52 102.867,56.52"
           style="fill:none;stroke:#c5c5c5;stroke-width:10;stroke-opacity:1;filter:url(#filter4943)"
           id="path19643" />
        <path
           d="m -697.522,1266.89 q 109.65,0 166.17,35.05 m 45.217,129.99 q -11.304,21.48 -42.956,36.18"
           style="fill:none;stroke:#a7a7a7;stroke-width:10;stroke-opacity:1;filter:url(#filter4943)"
           id="path19645" />
        <path
           d="m -498.57,1832.1 q -22.608,28.26 -71.216,47.48"
           style="fill:none;stroke:#9d9d9d;stroke-width:10;stroke-opacity:1;filter:url(#filter4943)"
           id="path19647" />
        <path
           d="m -838.823,1296.29 q 63.303,-29.4 141.301,-29.4 m 4.522,68.96 q -32.782,0 -57.651,22.61"
           style="fill:none;stroke:#8a8a8a;stroke-width:10;stroke-opacity:1;filter:url(#filter4943)"
           id="path19649" />
        <path
           d="m -665.871,1814.01 q 58.782,0 101.737,-26"
           style="fill:none;stroke:#808080;stroke-width:10;stroke-opacity:1;filter:url(#filter4943)"
           id="path19651" />
        <path
           d="m -529.091,1468.11 q -31.651,13.56 -90.433,13.56 m 49.738,397.91 q -48.607,19.21 -124.345,19.21"
           style="fill:none;stroke:#767676;stroke-width:10;stroke-opacity:1;filter:url(#filter4943)"
           id="path19653" />
        <path
           d="m -694.131,1898.79 q -82.52,0 -145.823,-29.39 M -938.3,1395.76 q 37.304,-70.08 99.477,-99.47"
           style="fill:none;stroke:#595959;stroke-width:10;stroke-opacity:1;filter:url(#filter4943)"
           id="path19655" />
        <path
           d="m -564.134,1788.01 q 42.956,-27.13 62.173,-65.56"
           style="fill:none;stroke:#4f4f4f;stroke-width:10;stroke-opacity:1;filter:url(#filter4943)"
           id="path19657" />
        <path
           d="M -648.914,1356.2 Q -664.74,1335.85 -693,1335.85"
           style="fill:none;stroke:#454545;stroke-width:10;stroke-opacity:1;filter:url(#filter4943)"
           id="path19659" />
        <path
           d="m -839.954,1869.4 q -63.303,-30.52 -99.476,-98.34"
           style="fill:none;stroke:#282828;stroke-width:10;stroke-opacity:1;filter:url(#filter4943)"
           id="path19661" />
        <path
           d="m -974.473,1586.8 q 0,-122.08 36.173,-191.04"
           style="fill:none;stroke:#1e1e1e;stroke-width:10;stroke-opacity:1;filter:url(#filter4943)"
           id="path19663" />
        <path
           d="m -619.524,1481.67 q 0,-39.56 -6.782,-72.34 m 0,0 q -6.783,-32.79 -22.608,-53.13"
           style="fill:none;stroke:#0a0a0a;stroke-width:10;stroke-opacity:1;filter:url(#filter4943)"
           id="path19665" />
        <path
           d="m -939.43,1771.06 q -35.043,-68.96 -35.043,-184.26"
           style="fill:none;stroke:#000000;stroke-width:10;stroke-opacity:1;filter:url(#filter4943)"
           id="path19667" />
      </g>
    </g>
    <g
       clip-path="url(#clipPath9588)"
       id="g19711">
      <g
         id="g19709">
        <path
           d="m 76.8098,1309.85 q 59.9122,42.96 59.9122,149.21 m 0,288.26 q 0,46.35 14.695,63.3"
           style="fill:none;stroke:#ffffff;stroke-width:10;stroke-opacity:1;filter:url(#filter6776)"
           id="path19673" />
        <path
           d="m 136.722,1459.06 v 288.26 m 72.346,80.26 v 59.91 m -414.861,-168.43 q 0,97.21 64.434,97.21"
           style="fill:none;stroke:#ececec;stroke-width:10;stroke-opacity:1;filter:url(#filter6776)"
           id="path19675" />
        <path
           d="m -165.098,1370.89 q -15.826,35.04 -15.826,87.04"
           style="fill:none;stroke:#e2e2e2;stroke-width:10;stroke-opacity:1;filter:url(#filter6776)"
           id="path19677" />
        <path
           d="m -179.793,1626.37 q -26,31.65 -26,92.69"
           style="fill:none;stroke:#d8d8d8;stroke-width:10;stroke-opacity:1;filter:url(#filter6776)"
           id="path19679" />
        <path
           d="m 151.417,1810.62 q 14.695,16.96 53.129,16.96 m -239.6469,-18.09 q -24.869,30.52 -47.4772,50.87"
           style="fill:none;stroke:#b1b1b1;stroke-width:10;stroke-opacity:1;filter:url(#filter6776)"
           id="path19681" />
        <path
           d="m -100.665,1266.89 q 118.6934,0 177.4748,42.96"
           style="fill:none;stroke:#a7a7a7;stroke-width:10;stroke-opacity:1;filter:url(#filter6776)"
           id="path19683" />
        <path
           d="m -127.795,1530.28 92.6941,-3.39 m -70.0851,-191.04 q -42.956,0 -59.912,35.04 m 369.644,456.69 h 4.522 m -291.6461,32.78 q -21.4779,19.22 -49.7379,28.26"
           style="fill:none;stroke:#949494;stroke-width:10;stroke-opacity:1;filter:url(#filter6776)"
           id="path19685" />
        <path
           d="m -218.227,1279.33 q 53.129,-12.44 117.562,-12.44 m 14.6957,323.3 q -67.8247,3.39 -93.8237,36.18"
           style="fill:none;stroke:#8a8a8a;stroke-width:10;stroke-opacity:1;filter:url(#filter6776)"
           id="path19687" />
        <path
           d="m -318.834,1578.89 q 63.303,-44.09 191.039,-48.61"
           style="fill:none;stroke:#808080;stroke-width:10;stroke-opacity:1;filter:url(#filter6776)"
           id="path19689" />
        <path
           d="m -301.878,1315.5 q 31.652,-24.87 83.651,-36.17 m 85.911,609.29 q -28.26,10.17 -71.216,10.17"
           style="fill:none;stroke:#767676;stroke-width:10;stroke-opacity:1;filter:url(#filter6776)"
           id="path19691" />
        <path
           d="M 209.068,1887.49 H -1.18852 m -23.73868,-78 h -10.1737 m -106.2581,6.78 q 48.6072,0 76.8674,-38.43 m 29.3907,-191.04 -50.8684,3.39"
           style="fill:none;stroke:#6c6c6c;stroke-width:10;stroke-opacity:1;filter:url(#filter6776)"
           id="path19693" />
        <path
           d="m -180.924,1457.93 q -75.737,0 -114.171,-16.95"
           style="fill:none;stroke:#595959;stroke-width:10;stroke-opacity:1;filter:url(#filter6776)"
           id="path19695" />
        <path
           d="m -203.532,1898.79 q -74.607,0 -126.606,-45.21"
           style="fill:none;stroke:#4f4f4f;stroke-width:10;stroke-opacity:1;filter:url(#filter6776)"
           id="path19697" />
        <path
           d="m -381.007,1714.54 q 0,-91.57 62.173,-135.65 m 271.2986,-206.87 q -11.3041,-36.17 -57.6506,-36.17 m -228.343,46.35 q 0,-41.83 31.651,-66.7"
           style="fill:none;stroke:#3b3b3b;stroke-width:10;stroke-opacity:1;filter:url(#filter6776)"
           id="path19699" />
        <path
           d="m -64.4916,1777.84 q 29.3907,-39.56 29.3907,-106.26"
           style="fill:none;stroke:#282828;stroke-width:10;stroke-opacity:1;filter:url(#filter6776)"
           id="path19701" />
        <path
           d="m -35.1009,1526.89 v -62.17 m -259.9941,-23.74 q -38.434,-16.96 -38.434,-58.78 m 298.4281,289.38 v -84.78"
           style="fill:none;stroke:#141414;stroke-width:10;stroke-opacity:1;filter:url(#filter6776)"
           id="path19703" />
        <path
           d="m -35.1009,1464.72 q 0,-56.52 -12.4345,-92.7"
           style="fill:none;stroke:#0a0a0a;stroke-width:10;stroke-opacity:1;filter:url(#filter6776)"
           id="path19705" />
        <path
           d="m -330.138,1853.58 q -50.869,-45.22 -50.869,-139.04 m 379.81848,172.95 -23.73868,-78"
           style="fill:none;stroke:#000000;stroke-width:10;stroke-opacity:1;filter:url(#filter6776)"
           id="path19707" />
      </g>
    </g>
    <g
       clip-path="url(#clipPath8281)"
       id="g19759">
      <g
         id="g19757">
        <path
           d="m 491.671,1281.59 20.348,88.17 m 349.297,-23.74 q 59.911,75.74 59.911,240.78 m -395.643,438.6 q 0,31.65 12.434,47.48"
           style="fill:none;stroke:#ffffff;stroke-width:10;stroke-opacity:1;filter:url(#filter3172)"
           id="path19713" />
        <path
           d="m 516.54,1810.62 q 2.261,15.83 4.522,42.96 m 0,0 q 2.261,26 3.391,50.87 m 1.131,-317.65 q 0,117.56 23.738,174.08"
           style="fill:none;stroke:#f6f6f6;stroke-width:10;stroke-opacity:1;filter:url(#filter3172)"
           id="path19715" />
        <path
           d="m 524.453,1904.45 q 1.131,26 1.131,42.95 m 0,0 v 78 m 105.128,73.48 v 59.91"
           style="fill:none;stroke:#ececec;stroke-width:10;stroke-opacity:1;filter:url(#filter3172)"
           id="path19717" />
        <path
           d="m 549.322,1414.98 q -23.738,59.91 -23.738,171.82"
           style="fill:none;stroke:#e2e2e2;stroke-width:10;stroke-opacity:1;filter:url(#filter3172)"
           id="path19719" />
        <path
           d="m 921.227,1586.8 q 0,163.91 -58.781,239.65"
           style="fill:none;stroke:#d8d8d8;stroke-width:10;stroke-opacity:1;filter:url(#filter3172)"
           id="path19721" />
        <path
           d="m 538.018,2072.88 q 13.565,15.82 31.652,20.34 m -20.348,-332.34 q 24.869,56.52 91.564,56.52"
           style="fill:none;stroke:#c5c5c5;stroke-width:10;stroke-opacity:1;filter:url(#filter3172)"
           id="path19723" />
        <path
           d="m 689.493,1270.29 q 113.041,0 171.823,75.73"
           style="fill:none;stroke:#bbbbbb;stroke-width:10;stroke-opacity:1;filter:url(#filter3172)"
           id="path19725" />
        <path
           d="m 569.67,2093.22 q 19.217,5.66 36.173,5.66"
           style="fill:none;stroke:#a7a7a7;stroke-width:10;stroke-opacity:1;filter:url(#filter3172)"
           id="path19727" />
        <path
           d="m 642.016,1355.07 q -67.825,0 -92.694,59.91"
           style="fill:none;stroke:#9d9d9d;stroke-width:10;stroke-opacity:1;filter:url(#filter3172)"
           id="path19729" />
        <path
           d="m 259.937,2098.88 h 13.565 m -3.391,-817.29 h 221.56 m 20.348,88.17 h 4.521 m 89.303,729.12 h 24.869"
           style="fill:none;stroke:#949494;stroke-width:10;stroke-opacity:1;filter:url(#filter3172)"
           id="path19731" />
        <path
           d="m 273.502,2098.88 q 16.956,0 35.043,-5.66 m 553.901,-266.77 q -58.781,74.6 -168.431,74.6"
           style="fill:none;stroke:#8a8a8a;stroke-width:10;stroke-opacity:1;filter:url(#filter3172)"
           id="path19733" />
        <path
           d="m 582.104,1298.55 q 41.825,-28.26 107.389,-28.26"
           style="fill:none;stroke:#808080;stroke-width:10;stroke-opacity:1;filter:url(#filter3172)"
           id="path19735" />
        <path
           d="m 278.024,1341.5 h -7.913 m 254.342,469.12 h -7.913"
           style="fill:none;stroke:#6c6c6c;stroke-width:10;stroke-opacity:1;filter:url(#filter3172)"
           id="path19737" />
        <path
           d="m 308.545,2093.22 q 19.217,-4.52 31.651,-20.34 m 300.69,-255.48 q 56.52,0 81.389,-56.52"
           style="fill:none;stroke:#636363;stroke-width:10;stroke-opacity:1;filter:url(#filter3172)"
           id="path19739" />
        <path
           d="m 332.283,1355.07 q -21.477,-13.57 -54.259,-13.57 m 415.991,559.55 q -64.434,0 -105.128,-23.73"
           style="fill:none;stroke:#595959;stroke-width:10;stroke-opacity:1;filter:url(#filter3172)"
           id="path19741" />
        <path
           d="m 516.54,1369.76 q 24.869,-44.08 65.564,-71.21"
           style="fill:none;stroke:#4f4f4f;stroke-width:10;stroke-opacity:1;filter:url(#filter3172)"
           id="path19743" />
        <path
           d="m 722.275,1414.98 q -24.869,-59.91 -80.259,-59.91"
           style="fill:none;stroke:#323232;stroke-width:10;stroke-opacity:1;filter:url(#filter3172)"
           id="path19745" />
        <path
           d="m 340.196,2072.88 q 13.565,-15.83 13.565,-47.48 m 235.126,-148.08 q -39.565,-24.87 -64.434,-66.7"
           style="fill:none;stroke:#282828;stroke-width:10;stroke-opacity:1;filter:url(#filter3172)"
           id="path19747" />
        <path
           d="m 722.275,1760.88 q 24.869,-57.65 24.869,-172.95"
           style="fill:none;stroke:#1e1e1e;stroke-width:10;stroke-opacity:1;filter:url(#filter3172)"
           id="path19749" />
        <path
           d="m 259.937,2158.79 v -59.91 m 93.824,-73.48 v -604.77 m -83.65,-79.13 v -59.91"
           style="fill:none;stroke:#141414;stroke-width:10;stroke-opacity:1;filter:url(#filter3172)"
           id="path19751" />
        <path
           d="m 747.144,1587.93 q 0,-113.04 -24.869,-172.95"
           style="fill:none;stroke:#0a0a0a;stroke-width:10;stroke-opacity:1;filter:url(#filter3172)"
           id="path19753" />
        <path
           d="m 353.761,1420.63 q 0,-52 -21.478,-65.56"
           style="fill:none;stroke:#000000;stroke-width:10;stroke-opacity:1;filter:url(#filter3172)"
           id="path19755" />
      </g>
    </g>
    <g
       clip-path="url(#clipPath2529)"
       id="g19793">
      <g
         id="g19791">
        <path
           d="m 1501.13,1335.85 q 71.21,68.95 71.21,203.47 m -370.77,57.65 q 3.39,114.18 41.83,166.17"
           style="fill:none;stroke:#ffffff;stroke-width:10;stroke-opacity:1;filter:url(#filter3463)"
           id="path19761" />
        <path
           d="m 1572.34,1539.32 v 57.65 m -59.91,125.48 q 30.52,16.96 30.52,55.39"
           style="fill:none;stroke:#ececec;stroke-width:10;stroke-opacity:1;filter:url(#filter3463)"
           id="path19763" />
        <path
           d="m 1234.35,1387.85 q -28.26,47.48 -30.52,136.78"
           style="fill:none;stroke:#d8d8d8;stroke-width:10;stroke-opacity:1;filter:url(#filter3463)"
           id="path19765" />
        <path
           d="m 1243.4,1763.14 q 39.56,50.87 109.65,50.87 m 189.9,-36.17 q 0,48.61 -54.26,84.78"
           style="fill:none;stroke:#bbbbbb;stroke-width:10;stroke-opacity:1;filter:url(#filter3463)"
           id="path19767" />
        <path
           d="m 1307.83,1266.89 q 123.21,0 193.3,68.96"
           style="fill:none;stroke:#b1b1b1;stroke-width:10;stroke-opacity:1;filter:url(#filter3463)"
           id="path19769" />
        <path
           d="m 1310.09,1340.37 q -47.48,0 -75.74,47.48"
           style="fill:none;stroke:#9d9d9d;stroke-width:10;stroke-opacity:1;filter:url(#filter3463)"
           id="path19771" />
        <path
           d="m 1203.83,1524.63 h 195.56"
           style="fill:none;stroke:#949494;stroke-width:10;stroke-opacity:1;filter:url(#filter3463)"
           id="path19773" />
        <path
           d="m 1353.05,1814.01 q 58.78,0 99.47,-26 m 36.17,74.61 q -54.26,36.17 -168.43,36.17"
           style="fill:none;stroke:#808080;stroke-width:10;stroke-opacity:1;filter:url(#filter3463)"
           id="path19775" />
        <path
           d="m 1099.83,1348.28 q 73.48,-81.39 208,-81.39"
           style="fill:none;stroke:#767676;stroke-width:10;stroke-opacity:1;filter:url(#filter3463)"
           id="path19777" />
        <path
           d="M 1572.34,1596.97 H 1201.57"
           style="fill:none;stroke:#6c6c6c;stroke-width:10;stroke-opacity:1;filter:url(#filter3463)"
           id="path19779" />
        <path
           d="m 1320.26,1898.79 q -144.69,0 -219.3,-81.39 m 351.56,-29.39 q 40.7,-27.13 59.91,-65.56"
           style="fill:none;stroke:#4f4f4f;stroke-width:10;stroke-opacity:1;filter:url(#filter3463)"
           id="path19781" />
        <path
           d="m 1379.04,1388.98 q -20.34,-48.61 -68.95,-48.61"
           style="fill:none;stroke:#323232;stroke-width:10;stroke-opacity:1;filter:url(#filter3463)"
           id="path19783" />
        <path
           d="m 1027.49,1587.93 q 0,-159.39 72.34,-239.65"
           style="fill:none;stroke:#282828;stroke-width:10;stroke-opacity:1;filter:url(#filter3463)"
           id="path19785" />
        <path
           d="m 1399.39,1524.63 q 0,-87.04 -20.35,-135.65"
           style="fill:none;stroke:#0a0a0a;stroke-width:10;stroke-opacity:1;filter:url(#filter3463)"
           id="path19787" />
        <path
           d="m 1100.96,1817.4 q -73.47,-81.39 -73.47,-229.47"
           style="fill:none;stroke:#000000;stroke-width:10;stroke-opacity:1;filter:url(#filter3463)"
           id="path19789" />
      </g>
    </g>
  </g>
</svg>
