<?xml version="1.0" encoding="UTF-8"?>
<!-- Created with Inkscape (http://www.inkscape.org/) -->
<svg width="672" height="180" version="1.1" viewBox="0 0 672 180" xmlns="http://www.w3.org/2000/svg" xmlns:xlink="http://www.w3.org/1999/xlink">
 <defs>
  <radialGradient id="radialGradient2414" cx="336" cy="89.998" r="328.95" gradientTransform="matrix(1 0 0 .23773 0 68.603)" gradientUnits="userSpaceOnUse">
   <stop stop-color="#ff0" offset="0"/>
   <stop stop-color="#f57900" offset=".39167"/>
   <stop stop-color="#3465a4" offset=".42874"/>
   <stop stop-color="#555753" offset=".82256"/>
   <stop stop-color="#ff0" stop-opacity="0" offset="1"/>
  </radialGradient>
 </defs>
 <rect x="9.0477" y="13.798" width="653.9" height="152.4" fill="url(#radialGradient2414)" fill-rule="evenodd" stroke="#ffb700" stroke-linecap="round" stroke-linejoin="round" stroke-width="4"/>
</svg>
