<?xml version="1.0" encoding="UTF-8"?>
<!-- Created with Inkscape (http://www.inkscape.org/) -->
<svg width="672" height="240" version="1.1" viewBox="0 0 177.8 63.5" xmlns="http://www.w3.org/2000/svg" xmlns:xlink="http://www.w3.org/1999/xlink">
 <defs>
  <radialGradient id="radialGradient11613-3" cx="24.345" cy="32.343" r="22.829" gradientTransform="matrix(1 0 0 .61947 0 12.307)" gradientUnits="userSpaceOnUse">
   <stop offset="0"/>
   <stop stop-opacity="0" offset="1"/>
  </radialGradient>
  <radialGradient id="radialGradient12258-5" cx="20.589" cy="14.245" r="13.262" gradientTransform="matrix(1.8664,0,0,2.3051,-16.992,-19.013)" gradientUnits="userSpaceOnUse">
   <stop stop-color="#fff" offset="0"/>
   <stop stop-color="#d9d9d9" offset=".37333"/>
   <stop stop-color="#c5c5c5" offset=".60311"/>
   <stop stop-color="#909090" offset="1"/>
  </radialGradient>
  <linearGradient id="linearGradient162" x1="35.743" x2="36.543" y1="4.375" y2="-1" gradientTransform="matrix(.84053 0 0 1 4.1706 0)" gradientUnits="userSpaceOnUse">
   <stop stop-color="#acacac" offset="0"/>
   <stop stop-color="#8d8d8d" stop-opacity="0" offset="1"/>
  </linearGradient>
  <linearGradient id="linearGradient164" x1="23.991" x2="23.991" y1="12.83" y2="7.1877" gradientUnits="userSpaceOnUse">
   <stop stop-color="#fff" offset="0"/>
   <stop stop-color="#a9a9a9" offset="1"/>
  </linearGradient>
  <linearGradient id="linearGradient166" x1="10.807" x2="16.002" y1="2.4829" y2="56.4" gradientTransform="matrix(.77142 0 0 1 5.8484 1)" gradientUnits="userSpaceOnUse">
   <stop stop-color="#fff" offset="0"/>
   <stop stop-color="#fff" stop-opacity="0" offset="1"/>
  </linearGradient>
  <linearGradient id="linearGradient168" x1="23.991" x2="23.991" y1="6.5837" y2="15.069" gradientUnits="userSpaceOnUse">
   <stop stop-color="#b1b1b1" offset="0"/>
   <stop stop-color="#dfdfdf" offset=".2"/>
   <stop stop-color="#565656" offset="1"/>
  </linearGradient>
 </defs>
 <g transform="translate(-24.623 -9.9259)">
  <g fill="#f60" fill-rule="evenodd" stroke-linecap="round" stroke-linejoin="round" stroke-width=".3175">
   <rect x="148.2" y="11.926" width="10.854" height="10.381"/>
   <rect x="161.28" y="11.926" width="10.854" height="10.381"/>
   <rect x="174.36" y="11.926" width="10.854" height="10.381"/>
   <rect x="187.43" y="11.926" width="10.854" height="10.381"/>
   <rect x="135.12" y="11.926" width="10.854" height="10.381"/>
   <rect x="135.12" y="48.785" width="10.854" height="10.381"/>
   <rect x="135.12" y="36.499" width="10.854" height="10.381"/>
   <rect x="135.12" y="61.072" width="10.854" height="10.381"/>
   <rect x="187.43" y="48.785" width="10.854" height="10.381"/>
   <rect x="187.43" y="36.499" width="10.854" height="10.381"/>
   <rect x="187.43" y="61.072" width="10.854" height="10.381"/>
   <rect x="148.2" y="61.072" width="10.854" height="10.381"/>
   <rect x="161.28" y="61.072" width="10.854" height="10.381"/>
   <rect x="174.36" y="61.072" width="10.854" height="10.381"/>
   <rect x="161.28" y="36.499" width="10.854" height="10.381"/>
  </g>
  <g fill="#0cf" fill-rule="evenodd" stroke-linecap="round" stroke-linejoin="round" stroke-width=".3175">
   <circle cx="153.63" cy="29.403" r="5.2359"/>
   <circle cx="166.71" cy="53.976" r="5.2359"/>
   <circle cx="179.78" cy="53.976" r="5.2359"/>
   <circle cx="153.63" cy="53.976" r="5.2359"/>
   <circle cx="179.78" cy="41.689" r="5.2359"/>
   <circle cx="153.63" cy="41.689" r="5.2359"/>
   <circle cx="166.71" cy="29.403" r="5.2359"/>
   <circle cx="179.78" cy="29.403" r="5.2359"/>
   <circle cx="192.86" cy="29.403" r="5.2359"/>
   <circle cx="140.55" cy="29.403" r="5.2359"/>
  </g>
  <g fill="#f60" fill-rule="evenodd" stroke-linecap="round" stroke-linejoin="round" stroke-width=".3175">
   <rect x="41.091" y="11.223" width="10.854" height="10.381"/>
   <rect x="54.168" y="11.223" width="10.854" height="10.381"/>
   <rect x="67.245" y="11.223" width="10.854" height="10.381"/>
   <rect x="80.322" y="11.223" width="10.854" height="10.381"/>
   <rect x="28.014" y="11.223" width="10.854" height="10.381"/>
   <rect x="28.014" y="48.082" width="10.854" height="10.381"/>
   <rect x="28.014" y="35.795" width="10.854" height="10.381"/>
   <rect x="28.014" y="60.368" width="10.854" height="10.381"/>
   <rect x="80.322" y="48.082" width="10.854" height="10.381"/>
   <rect x="80.322" y="35.795" width="10.854" height="10.381"/>
   <rect x="80.322" y="60.368" width="10.854" height="10.381"/>
   <rect x="41.091" y="60.368" width="10.854" height="10.381"/>
   <rect x="54.168" y="60.368" width="10.854" height="10.381"/>
   <rect x="67.245" y="60.368" width="10.854" height="10.381"/>
   <rect x="54.168" y="35.795" width="10.854" height="10.381"/>
  </g>
  <g fill="#0cf" fill-rule="evenodd" stroke-linecap="round" stroke-linejoin="round" stroke-width=".3175">
   <circle cx="46.518" cy="28.699" r="5.2359"/>
   <circle cx="59.595" cy="53.272" r="5.2359"/>
   <circle cx="72.672" cy="53.272" r="5.2359"/>
   <circle cx="46.518" cy="53.272" r="5.2359"/>
   <circle cx="72.672" cy="40.986" r="5.2359"/>
   <circle cx="46.518" cy="40.986" r="5.2359"/>
   <circle cx="59.595" cy="28.699" r="5.2359"/>
   <circle cx="72.672" cy="28.699" r="5.2359"/>
   <circle cx="85.749" cy="28.699" r="5.2359"/>
   <circle cx="33.441" cy="28.699" r="5.2359"/>
  </g>
  <path d="m25.602 29.54c2.2224-0.29518 4.6162 0.19288 6.8223-0.17976 1.2595-0.21274 2.5613-0.51932 3.8416-0.62602 3.4807-0.29006 7.1142 0 10.606 0 4.9462 0 9.8431 0.52207 14.741 0.89882 3.808 0.29293 8.1067 0.24877 11.559 2.2316 1.1402 0.65488 2.2912 2.4081 2.6873 3.5861 0.37885 1.1267 0 3.1686 0 4.3107 0 1.7534 0.34324 3.9432-0.08988 5.6756-0.69464 2.7785-2.9802 6.9029-5.4608 8.5566-3.0447 2.0297-7.1129 1.2537-10.58 1.2537-4.5234 0-9.0646 0.63114-13.078-1.8754-1.0595-0.66171-2.6092-3.1367-2.8633-4.2694-0.27165-1.2113-0.0097-6.9214 0.36183-8.0361 0.27226-0.81677 0.69375-1.6572 1.0786-2.4268 0.73634-1.4727 2.694-2.7839 3.8625-3.9524 2.4778-2.4777 5.226-5.2455 8.6259-6.3788 2.1385-0.71285 4.7037 0.09738 6.9209-0.17977 2.603-0.32536 5.3704-0.08988 7.9995-0.08988 2.3006 0 4.7222-0.20804 7.0108 0 1.8831 0.17118 3.7679 0.82021 5.6626 1.0786 1.7462 0.23812 3.5485 0.01678 5.3031 0.08988 5.0828 0.21178 0.54399 0.17976 3.8649 0.17976" fill="none" stroke="#f00" stroke-width=".26458px"/>
  <g transform="matrix(.52917 0 0 .52917 100.74 46.464)">
   <path transform="matrix(.68419 0 0 1.2411 7.9766 -9.191)" d="m47.174 32.343a22.83 14.142 0 1 1-45.659 0 22.83 14.142 0 1 1 45.659 0z" color="#000000" fill="url(#radialGradient11613-3)" fill-rule="evenodd"/>
   <path d="m23.923 10.5c-3.362-7.5-1.891-8.75 5.043-6.75 6.789 1.9579 14.499 10.25 13.869 1.5-0.668-9.2699-9.456-14-9.456-14" fill="none" stroke="url(#linearGradient162)"/>
   <g fill-rule="evenodd">
    <path d="m9.9399 27.131c-2.4564 10.907 4.7011 18.41 15.447 18.41 10.63 0 15.915-8.69 13.726-18.41l-3.49-13.014c-0.407-1.823-1.276-2.406-1.861-2.605-5.723-2.5692-13.785-2.693-18.82 0-0.64 0.348-1.105 0.348-1.571 2.084l-3.4311 13.535z" fill="url(#radialGradient12258-5)" stroke="#4f4f4f"/>
    <g transform="matrix(.84053 0 0 1 4.1706 1)">
     <path d="m8.5737 22.948c8.2323-5.303 21.281-5.909 29.951-0.606-7.693-3.877-20.706-4.344-29.951 0.606z" fill="#fff" fill-opacity=".79661"/>
     <path d="m8.7504 22.727c8.6296-6.231 21.281-6.307 29.686-0.473-7.78-4.673-20.75-4.963-29.686 0.473z" fill-opacity=".25989"/>
    </g>
    <path transform="matrix(1.6663 0 0 1.4178 -15.706 .34787)" d="m26.163 11.331a2.172 4.7481 0 1 1-4.344 0 2.172 4.7481 0 1 1 4.344 0z" color="#000000" fill="url(#linearGradient164)"/>
   </g>
   <path d="m10.487 28.908c-1.4079 8.461 4.638 15.666 14.972 15.666s14.289-8.698 13.114-15.666l-3.725-13.958c-0.309-2.196-1.22-2.407-1.759-2.619-5.851-2.296-12.674-2.4855-17.441 0-0.598 0.311-1.093 0.193-1.456 1.777z" fill="none" stroke="url(#linearGradient166)"/>
   <path transform="matrix(.84053 0 0 1 4.0856 2.7425)" d="m26.163 11.331a2.172 4.7481 0 1 1-4.344 0 2.172 4.7481 0 1 1 4.344 0z" color="#000000" fill="url(#linearGradient168)" fill-rule="evenodd" stroke="#595959" stroke-width=".54537"/>
   <path transform="matrix(.23456 0 0 .54255 17.987 6.3603)" d="m26.163 11.331a2.172 4.7481 0 1 1-4.344 0 2.172 4.7481 0 1 1 4.344 0z" color="#000000" fill="#fff" fill-opacity=".33333" fill-rule="evenodd"/>
   <path d="m15.16 13.089c-0.90056 2.0766-1.7506 6.5023-2.5623 9.7153 2.847-1.9212 5.4242-2.9165 8.5014-3.5509-0.89718-3.0423-0.29107-5.7149 1.1071-8.1929-2.4545 0.14728-6.5406 0.86243-7.0463 2.0285z" color="#000000" fill="#73d216" fill-rule="evenodd"/>
  </g>
  <path d="m122.5 31.255h-20.496v-3.7042h20.496v-2.3372s7.2683 4.0662 7.2683 4.1892-7.2683 4.1892-7.2683 4.1892z" fill="none" stroke="#000" stroke-width=".26458"/>
  <g transform="matrix(.26458 0 0 .26458 93.523 28.862)" fill="#808080" stroke="#000">
   <g id="cursor" class="drop-shadow">
    <path d="m4.5 4.5 7.5 7.5h-4l3 7-1 0.5-3-7-2.5 2.5z" stroke="#fff" stroke-width="3px"/>
    <path d="m4.5 4.5 7.5 7.5h-4l3 7-1 0.5-3-7-2.5 2.5z" fill="#000" stroke-width="1px"/>
   </g>
  </g>
 </g>
 <style>@import './cursors.css';</style>
</svg>
