<?xml version="1.0" encoding="UTF-8"?>
<!-- Created with Inkscape (http://www.inkscape.org/) -->
<svg width="672" height="230" version="1.1" viewBox="0 0 672 230" xmlns="http://www.w3.org/2000/svg">
 <g transform="translate(328.39 34.33)" fill-rule="evenodd">
  <path transform="matrix(2.7245 0 0 2.7245 -295.4 -50.165)" d="m56.203 11.84 38.042 27.639-14.531 44.721-47.023-1e-6 -14.531-44.721z" fill="#00d400" style="paint-order:normal"/>
  <path transform="matrix(2.7245 0 0 2.7245 -295.4 -50.165)" d="m56.203 11.84 11.012 24.843 27.03 2.7963-20.224 18.15 5.6933 26.571-23.511-13.626-23.511 13.626 5.6933-26.571-20.224-18.15 27.03-2.7963z" fill="#80ffbf" style="paint-order:normal"/>
 </g>
 <g transform="translate(-10.22 -9.448)" fill-rule="evenodd">
  <path transform="matrix(2.7245 0 0 2.7245 342.98 -6.3863)" d="m56.203 11.84 38.042 27.639-14.531 44.721-47.023-1e-6 -14.531-44.721z" fill="#00d400" style="paint-order:normal"/>
  <path transform="matrix(2.7245 0 0 2.7245 342.98 -6.3863)" d="m56.203 11.84-0.086775 28.18 38.129-0.54051-26.827 8.6255 12.297 36.096-16.493-22.849-30.529 22.849 16.634-22.747-31.165-21.974 26.774 8.7906z" fill="#80ffbf" style="paint-order:normal"/>
 </g>
</svg>
