<?xml version="1.0" encoding="UTF-8" standalone="no"?>
<svg xmlns:rdf="http://www.w3.org/1999/02/22-rdf-syntax-ns#" xmlns="http://www.w3.org/2000/svg" version="1.1" xmlns:cc="http://creativecommons.org/ns#" xmlns:xlink="http://www.w3.org/1999/xlink" viewBox="0 0 16.03031 15.99231" xmlns:dc="http://purl.org/dc/elements/1.1/">
<metadata>
<rdf:RDF>
<cc:Work rdf:about="">
<dc:format>image/svg+xml</dc:format>
<dc:type rdf:resource="http://purl.org/dc/dcmitype/StillImage"/>
</cc:Work>
</rdf:RDF>
</metadata>
<defs>
<linearGradient id="b" y2="211.605" xlink:href="#g" gradientUnits="userSpaceOnUse" x2="18.58443" gradientTransform="matrix(1 0 0 .570788 0 88.25561)" y1="205.4478" x1="11.87961"/>
<linearGradient id="g">
<stop stop-color="#5a5a5a" offset="0"/>
<stop offset="1"/>
</linearGradient>
<linearGradient id="a">
<stop stop-color="#fff" offset="0"/>
<stop stop-color="#98b6d3" offset="1"/>
</linearGradient>
<linearGradient id="d" y2="214.7454" xlink:href="#a" gradientUnits="userSpaceOnUse" x2="17.68847" gradientTransform="matrix(.997569 0 0 .654301 -3.963176 65.55004)" y1="218.2885" x1="20.1778"/>
<linearGradient id="f" y2="214.7454" xlink:href="#a" gradientUnits="userSpaceOnUse" x2="17.68847" gradientTransform="matrix(.997569 0 0 .654301 -3.963176 65.55004)" y1="221.1125" x1="19.51159"/>
<linearGradient id="c" y2="218.8375" xlink:href="#a" gradientUnits="userSpaceOnUse" x2="17.88475" gradientTransform="matrix(.750795 0 0 .392032 .589107 122.468)" y1="213.2477" x1="14.87326"/>
<linearGradient id="e" y2="222.8609" xlink:href="#a" gradientUnits="userSpaceOnUse" x2="17.28477" gradientTransform="matrix(.750795 0 0 .392032 .589107 122.468)" y1="213.2477" x1="14.87326"/>
</defs>
<g transform="matrix(.998005 0 0 .998427 -404.12979 -219.63646)">
<rect style="color:#000000" height="16" width="16" y="220" x="405" stroke-width=".7" fill="none"/>
<rect style="color:#000000" fill-rule="evenodd" fill-opacity=".9942363" height="1" width="1" y="231.9748" x="416.9681" stroke-width="1.0000004" fill="#bf0000"/>
<g stroke-linejoin="round" stroke-miterlimit="0" transform="matrix(1.000856 0 0 1 394.94684 14.925482)">
<rect style="color:#000000" height="3.995016" width="5.4917" stroke="url(#b)" y="205.5581" x="10.5083" stroke-width="1.0021828" fill="none"/>
<rect style="color:#000000" fill-rule="evenodd" height="1.965379" width="3.492565" stroke="url(#c)" stroke-linecap="round" y="206.5582" x="11.50743" stroke-width="1.0021827" fill="url(#d)"/>
</g>
<g stroke-linejoin="round" stroke-miterlimit="0" transform="matrix(1.000856 0 0 1 402.98804 22.983152)">
<rect style="color:#000000" height="3.995016" width="5.4917" stroke="url(#b)" y="205.5581" x="10.5083" stroke-width="1.0021828" fill="none"/>
<rect style="color:#000000" fill-rule="evenodd" height="1.965379" width="3.492565" stroke="url(#c)" stroke-linecap="round" y="206.5582" x="11.50743" stroke-width="1.0021827" fill="url(#d)"/>
</g>
<g stroke-linejoin="round" stroke-miterlimit="0" transform="matrix(1.000856,0,0,1,402.9876,14.92548)">
<rect style="color:#000000" height="5.941895" width="5.4917" stroke="url(#b)" y="205.5581" x="10.5083" stroke-width="1.0021828" fill="none"/>
<rect style="color:#000000" fill-rule="evenodd" height="3.941803" width="3.492565" stroke="url(#e)" stroke-linecap="round" y="206.5582" x="11.50743" stroke-width="1.0021827" fill="url(#f)"/>
</g>
<g stroke-linejoin="round" stroke-miterlimit="0" transform="matrix(1.000856 0 0 1 394.92187 23.000964)">
<rect style="color:#000000" height="5.941895" width="5.4917" stroke="url(#b)" y="205.5581" x="10.5083" stroke-width="1.0021828" fill="none"/>
<rect style="color:#000000" fill-rule="evenodd" height="3.941803" width="3.492565" stroke="url(#e)" stroke-linecap="round" y="206.5582" x="11.50743" stroke-width="1.0021827" fill="url(#f)"/>
</g>
</g>
</svg>
