<?xml version="1.0" encoding="UTF-8" standalone="no"?>
<svg xmlns:rdf="http://www.w3.org/1999/02/22-rdf-syntax-ns#" xmlns="http://www.w3.org/2000/svg" version="1.1" xmlns:cc="http://creativecommons.org/ns#" xmlns:xlink="http://www.w3.org/1999/xlink" viewBox="0 0 16.062921 16.0008" xmlns:dc="http://purl.org/dc/elements/1.1/">
<metadata>
<rdf:RDF>
<cc:Work rdf:about="">
<dc:format>image/svg+xml</dc:format>
<dc:type rdf:resource="http://purl.org/dc/dcmitype/StillImage"/>
</cc:Work>
</rdf:RDF>
</metadata>
<defs>
<linearGradient id="c" y2="217.0041" xlink:href="#a" gradientUnits="userSpaceOnUse" x2="19.57123" gradientTransform="matrix(1.103365 0 0 .199883 -4.736921 163.6837)" y1="210.2974" x1="15.67863"/>
<linearGradient id="d" y2="211.605" xlink:href="#b" gradientUnits="userSpaceOnUse" x2="18.58443" gradientTransform="matrix(1.300191 0 0 .432481 -3.154508 116.6655)" y1="205.4478" x1="11.87961"/>
<linearGradient id="b">
<stop stop-color="#5a5a5a" offset="0"/>
<stop offset="1"/>
</linearGradient>
<linearGradient id="e" y2="218.8375" xlink:href="#a" gradientUnits="userSpaceOnUse" x2="17.88475" gradientTransform="matrix(.80275 0 0 .392032 -.364526 122.4629)" y1="213.2477" x1="14.87326"/>
<linearGradient id="f" y2="214.7455" xlink:href="#a" gradientUnits="userSpaceOnUse" x2="17.09525" gradientTransform="matrix(1.066601 0 0 .654301 -5.23183 65.54498)" y1="218.5388" x1="19.64591"/>
<linearGradient id="h" y2="218.8375" xlink:href="#a" gradientUnits="userSpaceOnUse" x2="17.88475" gradientTransform="matrix(.750795 0 0 .392032 .589107 122.468)" y1="213.2477" x1="14.87326"/>
<linearGradient id="j" y2="211.605" xlink:href="#b" gradientUnits="userSpaceOnUse" x2="18.58443" gradientTransform="matrix(1 0 0 .570788 0 88.25561)" y1="205.4478" x1="11.87961"/>
<linearGradient id="a">
<stop stop-color="#fff" offset="0"/>
<stop stop-color="#98b6d3" offset="1"/>
</linearGradient>
<linearGradient id="g" y2="211.605" xlink:href="#b" gradientUnits="userSpaceOnUse" x2="18.58443" gradientTransform="matrix(1 0 0 .570788 0 88.2556)" y1="205.4478" x1="11.87961"/>
<linearGradient id="i" y2="214.7454" xlink:href="#a" gradientUnits="userSpaceOnUse" x2="17.68847" gradientTransform="matrix(.997569 0 0 .654301 -3.963176 65.55004)" y1="218.2885" x1="20.1778"/>
</defs>
<g transform="matrix(.997443 0 0 .995359 44.92763 -174.11277)">
<rect style="color:#000000" height="16" width="16" y="175" x="-45" fill="none"/>
<g stroke-linejoin="round" stroke-miterlimit="0" transform="matrix(1.249506,0,0,1.001998,-55.66558,-19.47412)">
<rect style="color:#000000" height="3.995016" width="7.99868" stroke="url(#g)" y="205.5581" x="10.5083" stroke-width=".8969406" fill="none"/>
<rect style="color:#000000" fill-rule="evenodd" height="1.965379" width="6.40038" stroke="url(#e)" stroke-linecap="round" y="206.5531" x="11.30936" stroke-width=".8969405" fill="url(#f)"/>
</g>
<g stroke-linejoin="round" stroke-miterlimit="0" transform="matrix(1.000856,0,0,1.001998,-53.05186,-30.53742)">
<rect style="color:#000000" height="3.995016" width="5.4917" stroke="url(#j)" y="205.5581" x="10.5083" stroke-width="1.0021828" fill="none"/>
<rect style="color:#000000" fill-rule="evenodd" height="1.965379" width="3.492565" stroke="url(#h)" stroke-linecap="round" y="206.5582" x="11.50743" stroke-width="1.0021827" fill="url(#i)"/>
</g>
<g stroke-linejoin="round" stroke-miterlimit="0" transform="matrix(1.249506 0 0 .994331 -55.62604 -22.92368)" fill="none">
<rect style="color:#000000" height="3.02699" width="10.39982" stroke="url(#d)" y="205.5446" x="10.50829" stroke-width=".9003923"/>
<rect style="color:#000000" height="1.002073" width="8.7972" stroke="url(#c)" stroke-linecap="round" y="206.5581" x="11.30861" stroke-width=".9003921"/>
</g>
<path d="m-44.541 175.4264v15.03" stroke="#c80000" stroke-linecap="round" stroke-width="1.0036128px" fill="none"/>
</g>
</svg>
