<?xml version="1.0" encoding="UTF-8" standalone="no"?>
<svg xmlns:rdf="http://www.w3.org/1999/02/22-rdf-syntax-ns#" xmlns="http://www.w3.org/2000/svg" version="1.1" xmlns:cc="http://creativecommons.org/ns#" xmlns:xlink="http://www.w3.org/1999/xlink" viewBox="0 0 16.000858 16.001566" xmlns:dc="http://purl.org/dc/elements/1.1/">
<metadata>
<rdf:RDF>
<cc:Work rdf:about="">
<dc:format>image/svg+xml</dc:format>
<dc:type rdf:resource="http://purl.org/dc/dcmitype/StillImage"/>
</cc:Work>
</rdf:RDF>
</metadata>
<defs>
<linearGradient id="b" y2="350.1636" gradientUnits="userSpaceOnUse" x2="130.3522" y1="343.258" x1="121.1177">
<stop stop-color="#fffdf8" offset="0"/>
<stop stop-color="#cdccc7" offset="1"/>
</linearGradient>
<linearGradient id="a" y2="46.339" gradientUnits="userSpaceOnUse" x2="414.2602" gradientTransform="matrix(1.001797 0 0 .906445 -290.1978 295.2598)" y1="46.33899" x1="404.6787">
<stop stop-color="#fff" offset="0"/>
<stop stop-color="#98b6d3" offset="1"/>
</linearGradient>
</defs>
<g stroke-linejoin="round" stroke="#000" stroke-linecap="round" transform="translate(-54.999956,-258.00075)" fill-rule="evenodd">
<g transform="matrix(1 0 0 .996869 -60.05696 -76.20668)">
<rect style="color:#000000" height="11.99987" width="14.99917" y="338.8083" x="115.5577" stroke-width="1.0015693" fill="url(#b)"/>
<rect style="color:#000000" height="3.011261" width="14.99819" y="335.7579" x="115.5588" stroke-width="1.0015692" fill="url(#a)"/>
</g>
<path style="color:#000000" d="m57.49993 263.4998h11.00004l0.00003 5.0002h-2l-2.20349 2.9721-0.29651-2.9721h-6.5l-0.00007-5.0002z" stroke-width=".9999992" fill="#d3d7cf"/>
</g>
</svg>
