<?xml version="1.0" encoding="UTF-8" standalone="no"?>
<svg xmlns:rdf="http://www.w3.org/1999/02/22-rdf-syntax-ns#" xmlns="http://www.w3.org/2000/svg" version="1.1" xmlns:cc="http://creativecommons.org/ns#" xmlns:xlink="http://www.w3.org/1999/xlink" viewBox="0 0 24 24" xmlns:dc="http://purl.org/dc/elements/1.1/">
<metadata>
<rdf:RDF>
<cc:Work rdf:about="">
<dc:format>image/svg+xml</dc:format>
<dc:type rdf:resource="http://purl.org/dc/dcmitype/StillImage"/>
</cc:Work>
</rdf:RDF>
</metadata>
<defs>
<linearGradient id="h" y2="220.8004" xlink:href="#b" gradientUnits="userSpaceOnUse" x2="582.4935" gradientTransform="matrix(.2940938 .2512907 -.2512907 .2940938 396.0589 33.80746)" y1="222.3478" x1="587.9551"/>
<linearGradient id="a">
<stop stop-color="#f3ff49" offset="0"/>
<stop stop-color="#ffa01e" offset="1"/>
</linearGradient>
<linearGradient id="g" y2="188.5494" xlink:href="#a" gradientUnits="userSpaceOnUse" x2="597.3068" gradientTransform="matrix(.2940938 .2512907 -.2512907 .2940938 396.0589 33.80746)" y1="186.6364" x1="593.3162"/>
<linearGradient id="b">
<stop stop-color="#376796" offset="0"/>
<stop stop-color="#b0dde2" offset="1"/>
</linearGradient>
<linearGradient id="f" y2="216.7914" gradientUnits="userSpaceOnUse" x2="594.861" gradientTransform="matrix(.2940938 .2512907 -.2512907 .2940938 396.0589 34.89977)" y1="213.1902" x1="594.8112">
<stop stop-color="#fff" offset="0"/>
<stop stop-color="#98b6d3" offset="1"/>
</linearGradient>
<linearGradient id="j" y2="221.2004" xlink:href="#b" gradientUnits="userSpaceOnUse" x2="602.0698" gradientTransform="matrix(.2940938 .2512907 -.2512907 .2940938 396.0589 33.80746)" y1="220.3636" x1="606.9615"/>
<linearGradient id="i" y2="204.916" xlink:href="#a" gradientUnits="userSpaceOnUse" x2="599.2378" gradientTransform="matrix(.2940938 .2512907 -.2512907 .2940938 396.0589 33.80746)" y1="195.5188" x1="593.1874"/>
<linearGradient id="d" y2="198.5761" gradientUnits="userSpaceOnUse" x2="592.8656" y1="198.5761" x1="591.3853">
<stop stop-color="#5a5a5a" offset="0"/>
<stop offset="1"/>
</linearGradient>
<linearGradient id="e" y2="216.4033" xlink:href="#a" gradientUnits="userSpaceOnUse" x2="612.2578" y1="215.402" x1="609.5726"/>
</defs>
<g transform="translate(-503.84109,-235.5354)">
<rect style="color:#000000" height="24" width="24" y="235.5354" x="503.8411" fill="none"/>
<path style="color:#000000" d="m512.7676 243.3399 9.0483 7.7313-1.0028 1.1737-9.0483-7.7314c0.116-0.7204 0.5112-1.0197 1.0028-1.1736z" fill-rule="evenodd" stroke="#000" stroke-width=".5719796" fill="url(#f)"/>
<path style="color:#000000" d="m521.7667 239.9343 0.418-1.3565 2.2733-1.9016 1.2047 1.0293-1.6192 2.5996-1.1271 0.4947-1.1497-0.8655z" fill-rule="evenodd" stroke="#000" stroke-width=".8" fill="url(#g)"/>
<path style="color:#000000" d="m507.2225 249.5491-1.2029 3.0167 2.0532-2.0895-0.8502-0.9272z" fill-rule="evenodd" stroke="#000" stroke-miterlimit="30" stroke-width=".5719796" fill="#b6cbe0"/>
<path stroke-linejoin="round" style="color:#000000" d="m508.0727 250.4763-0.8502-0.9272 0.1169-1.2603 11.8988-8.2753-0.2549 2.8423-10.9106 7.6205z" fill-rule="evenodd" stroke="#000" stroke-width=".8" fill="url(#h)"/>
<path style="color:#000000" d="m521.6141 239.6871c-0.8699-0.3199-1.7651-0.273-2.3754 0.3236l-0.2565 2.8496c-0.6408 1.273 0.3353 1.8966 1.4245 1.2172l2.7747-0.6979c0.4941-0.6959 0.4008-1.5875-0.0509-2.3968-0.2834-0.7259-0.7831-1.1253-1.5164-1.2957z" fill-rule="evenodd" stroke="#000" stroke-width=".8" fill="url(#i)"/>
<path stroke-linejoin="round" style="color:#000000" d="m514.5887 256.0406 1.0485 0.6952 1.2266-0.3122 6.3176-13.0441-2.7676 0.6952-5.8251 11.9659z" fill-rule="evenodd" stroke="#000" stroke-width=".8" fill="url(#j)"/>
<ellipse style="color:#000000" fill-rule="evenodd" rx="1.866584" transform="matrix(.2940938 .2512907 -.2512907 .2940938 396.0589 34.89977)" stroke="#000" ry="4.248087" cy="215.7293" cx="610.7591" stroke-width="1.4786291" fill="#f7df3a"/>
<ellipse style="color:#000000" fill-rule="evenodd" rx="1.866584" transform="matrix(.2940938 .2512907 -.2512907 .2940938 396.5889 35.35265)" stroke="#000" ry="4.248087" cy="215.7293" cx="610.7591" stroke-width="1.4786291" fill="url(#e)"/>
<circle id="c" style="color:#000000" fill-rule="evenodd" transform="matrix(.6717776 .5740055 -.5740055 .6717776 236.7316 -232.3531)" cy="198.5761" cx="592.1254" r=".740197" fill="url(#d)"/>
<path style="color:#000000" d="m508.3136 248.6121 4.0709-2.8096" stroke="#fff" stroke-linecap="round" stroke-width=".4" fill="none"/>
<path style="color:#000000" d="m515.6372 256.7358-2.7921 1.6589 1.7436-2.3541 1.0485 0.6952z" fill-rule="evenodd" stroke="#000" stroke-miterlimit="30" stroke-width=".5719796" fill="#b6cbe0"/>
<path stroke-linejoin="round" style="color:#000000" d="m522.9128 238.979 1.5091-1.2487" fill-rule="evenodd" stroke="#fff" stroke-linecap="round" stroke-miterlimit="30" stroke-width=".4" fill="#f7df3a"/>
<use xlink:href="#c" transform="translate(1.456413,1.183335)" height="540" width="1250" y="0" x="0"/>
</g>
</svg>
