<?xml version="1.0" encoding="UTF-8" standalone="no"?>
<svg xmlns:rdf="http://www.w3.org/1999/02/22-rdf-syntax-ns#" xmlns="http://www.w3.org/2000/svg" version="1.1" xmlns:cc="http://creativecommons.org/ns#" xmlns:xlink="http://www.w3.org/1999/xlink" viewBox="0 0 15.998196 15.9988" xmlns:dc="http://purl.org/dc/elements/1.1/">
<metadata>
<rdf:RDF>
<cc:Work rdf:about="">
<dc:format>image/svg+xml</dc:format>
<dc:type rdf:resource="http://purl.org/dc/dcmitype/StillImage"/>
</cc:Work>
</rdf:RDF>
</metadata>
<defs>
<linearGradient id="d" y2="184.6266" xlink:href="#a" gradientUnits="userSpaceOnUse" x2="977.4031" y1="180.7934" x1="967.6506"/>
<linearGradient id="a">
<stop stop-color="#5a5a5a" offset="0"/>
<stop offset="1"/>
</linearGradient>
<linearGradient id="c" y2="182.083" gradientUnits="userSpaceOnUse" x2="979.2319" gradientTransform="translate(0,-7)" y1="178.0314" x1="968.2573">
<stop stop-color="#e7eaf0" offset="0"/>
<stop stop-color="#bacadd" offset="1"/>
</linearGradient>
<linearGradient id="b" y2="184.715" xlink:href="#a" gradientUnits="userSpaceOnUse" x2="974.5747" gradientTransform="translate(0,-7)" y1="178.9373" x1="967.739"/>
<linearGradient id="e" y2="184.8026" gradientUnits="userSpaceOnUse" x2="979.8044" y1="182.4686" x1="974.1975">
<stop stop-color="#fff" offset="0"/>
<stop stop-color="#aaa" offset="1"/>
</linearGradient>
</defs>
<g transform="matrix(.999888 0 0 .999919 -964.89193 -169.98618)" fill-rule="evenodd">
<path opacity=".4809384" stroke-linejoin="round" style="color:#000000" d="m969.5 185.5h11l-4-5h-11l4 5z" stroke="url(#d)" stroke-linecap="square" stroke-miterlimit="0" stroke-width="1.0000962" fill="url(#e)"/>
<path stroke-linejoin="round" style="color:#000000" d="m969.5 175.5h11l-4-5h-11l4 5z" stroke="url(#b)" stroke-linecap="square" stroke-miterlimit="0" stroke-width="1.0000962" fill="url(#c)"/>
<path d="m973.5 176-2.5 3h2v5l1-1v-4h2l-2.5-3z"/>
</g>
</svg>
