<?xml version="1.0" encoding="UTF-8" standalone="no"?>
<svg xmlns:rdf="http://www.w3.org/1999/02/22-rdf-syntax-ns#" xmlns="http://www.w3.org/2000/svg" version="1.1" xmlns:cc="http://creativecommons.org/ns#" xmlns:xlink="http://www.w3.org/1999/xlink" viewBox="0 0 15.99999 15.99999" xmlns:dc="http://purl.org/dc/elements/1.1/">
<metadata>
<rdf:RDF>
<cc:Work rdf:about="">
<dc:format>image/svg+xml</dc:format>
<dc:type rdf:resource="http://purl.org/dc/dcmitype/StillImage"/>
</cc:Work>
</rdf:RDF>
</metadata>
<defs>
<linearGradient id="b" y2="207.5352" xlink:href="#a" gradientUnits="userSpaceOnUse" x2="22.12529" y1="207.3945" x1="11.89733"/>
<linearGradient id="c" y2="207.5353" xlink:href="#a" gradientUnits="userSpaceOnUse" x2="25.59999" y1="207.3121" x1="8.364343"/>
<linearGradient id="e" y2="212.7821" gradientUnits="userSpaceOnUse" x2="23.09063" y1="201.6041" x1="14.22924">
<stop stop-color="#e4ffa6" offset="0"/>
<stop stop-color="#3a7801" offset="1"/>
</linearGradient>
<linearGradient id="a">
<stop stop-color="#5a5a5a" offset="0"/>
<stop offset="1"/>
</linearGradient>
<linearGradient id="d" y2="211.0178" gradientUnits="userSpaceOnUse" x2="23.60995" y1="203.6547" x1="14.95977">
<stop stop-color="#a2f156" offset="0"/>
<stop stop-color="#a2f156" stop-opacity="0" offset="1"/>
</linearGradient>
</defs>
<g transform="translate(-10.48884,-199.5352)">
<ellipse stroke-linejoin="round" style="color:#000000" fill-rule="evenodd" rx="6.611154" ry="6.515604" stroke="url(#c)" cy="207.5353" cx="18.48884" fill="url(#d)"/>
<path style="color:#000000" fill="none" stroke="url(#b)" d="m15.35239 207.5955 2.03195 1.896 4.24095-3.9125"/>
<ellipse stroke-linejoin="round" style="color:#000000" rx="6.611154" transform="matrix(.8723531 0 0 .8723531 2.360043 26.49119)" stroke="url(#e)" ry="6.515604" cy="207.5353" cx="18.48884" fill="none"/>
<rect style="color:#000000" height="15.99999" width="15.99999" y="199.5352" x="10.48884" stroke-width=".531496" fill="none"/>
</g>
</svg>
