<?xml version="1.0" encoding="UTF-8" standalone="no"?>
<svg xmlns:rdf="http://www.w3.org/1999/02/22-rdf-syntax-ns#" xmlns="http://www.w3.org/2000/svg" version="1.1" xmlns:cc="http://creativecommons.org/ns#" xmlns:xlink="http://www.w3.org/1999/xlink" viewBox="0 0 20 20" xmlns:dc="http://purl.org/dc/elements/1.1/">
<metadata>
<rdf:RDF>
<cc:Work rdf:about="">
<dc:format>image/svg+xml</dc:format>
<dc:type rdf:resource="http://purl.org/dc/dcmitype/StillImage"/>
</cc:Work>
</rdf:RDF>
</metadata>
<defs>
<radialGradient id="a" cx="717.9988" gradientUnits="userSpaceOnUse" cy="72.99935" r="8" gradientTransform="matrix(1.12634 -.471221 .445195 1.164731 -121.1975 328.3106)">
<stop stop-color="#fff" offset="0"/>
<stop stop-color="#98b6d3" offset="1"/>
</radialGradient>
</defs>
<g transform="translate(-710.0445,-65.02022)">
<rect style="color:#000000" fill-rule="evenodd" height="18" width="18.0244" y="65.9991" x="711" stroke-width="1.0000004" fill="url(#a)"/>
<rect stroke-linejoin="round" style="color:#000000" transform="translate(40.04509 .0202183)" height="19" width="19" stroke="#000" stroke-linecap="round" y="65.5" x="670.4994" stroke-width="1px" fill="none"/>
</g>
</svg>
