<?xml version="1.0" encoding="UTF-8" standalone="no"?>
<svg xmlns:rdf="http://www.w3.org/1999/02/22-rdf-syntax-ns#" xmlns="http://www.w3.org/2000/svg" version="1.1" xmlns:cc="http://creativecommons.org/ns#" viewBox="0 0 20 20" xmlns:dc="http://purl.org/dc/elements/1.1/">
<metadata>
<rdf:RDF>
<cc:Work rdf:about="">
<dc:format>image/svg+xml</dc:format>
<dc:type rdf:resource="http://purl.org/dc/dcmitype/StillImage"/>
</cc:Work>
</rdf:RDF>
</metadata>
<g transform="translate(-1094.9994,-347)">
<rect height="9.5" width="9.5" y="347.5" x="1095.5" fill="#99b6d4"/>
<rect height="9.5" width="9.5" y="357" x="1095.5" fill="#fff"/>
<rect height="9.5" width="9.5" y="357" x="1105" fill="#99b6d4"/>
<rect height="9.5" width="9.5" y="347.5" x="1105" fill="#fff"/>
<rect stroke-linejoin="round" style="color:#000000" transform="translate(425 282)" height="19" width="19" stroke="#000" stroke-linecap="round" y="65.5" x="670.4994" stroke-width="1px" fill="none"/>
</g>
</svg>
