<?xml version="1.0" encoding="UTF-8" standalone="no"?>
<svg xmlns:rdf="http://www.w3.org/1999/02/22-rdf-syntax-ns#" xmlns="http://www.w3.org/2000/svg" version="1.1" xmlns:cc="http://creativecommons.org/ns#" viewBox="0 0 16 16" xmlns:dc="http://purl.org/dc/elements/1.1/">
<metadata>
<rdf:RDF>
<cc:Work rdf:about="">
<dc:format>image/svg+xml</dc:format>
<dc:type rdf:resource="http://purl.org/dc/dcmitype/StillImage"/>
</cc:Work>
</rdf:RDF>
</metadata>
<g transform="translate(-500,-120)">
<rect opacity=".33213" height="16" width="16" y="120" x="500" fill="none"/>
<path style="color:#000000" d="m504 122c-0.0938 2.5 4.2036 3.3952 5 4 1 0.7593 2.5 4.0937 5 4v-8h-10z" fill-opacity=".7019608" fill-rule="evenodd" stroke-width="2" fill="#99b7d6"/>
<path stroke-linejoin="round" style="color:#000000" d="m500 122h14v13" stroke-dashoffset=".5" stroke="#c80000" stroke-miterlimit="0" stroke-dasharray="1, 1" stroke-width="1.5" fill="none"/>
<path style="color:#000000" d="m514 130v-8h-10" stroke="#000" stroke-miterlimit="1.5" stroke-width="2" fill="none"/>
</g>
</svg>
