<?xml version="1.0" encoding="UTF-8" standalone="no"?>
<svg xmlns:rdf="http://www.w3.org/1999/02/22-rdf-syntax-ns#" xmlns="http://www.w3.org/2000/svg" version="1.1" xmlns:cc="http://creativecommons.org/ns#" xmlns:xlink="http://www.w3.org/1999/xlink" viewBox="0 0 30.043777 26.434763" xmlns:dc="http://purl.org/dc/elements/1.1/">
<metadata>
<rdf:RDF>
<cc:Work rdf:about="">
<dc:format>image/svg+xml</dc:format>
<dc:type rdf:resource="http://purl.org/dc/dcmitype/StillImage"/>
</cc:Work>
</rdf:RDF>
</metadata>
<defs>
<linearGradient id="a" y2="318.0103" gradientUnits="userSpaceOnUse" x2="375.3615" gradientTransform="translate(28.32058,70.02908)" y1="338.0772" x1="348.6006">
<stop stop-color="#1caf19" offset="0"/>
<stop stop-color="#6df668" offset="1"/>
</linearGradient>
</defs>
<g stroke="#000" stroke-width="1.2" transform="matrix(.8413762 0 0 .8105392 -309.68273 -314.43426)">
<path d="m377.4873 389.0398c-0.5938 0-1.0937 0.4999-1.0937 1.0937v8.1875h-6.625c-0.5938 0-1.0938 0.4687-1.0938 1.0625v18.9688c0 0.4139 0.2519 0.7588 0.5938 0.9375 0.026 0.0136 0.0353 0.0511 0.0625 0.0625 0.1783 0.3431 0.5226 0.5937 0.9375 0.5937h24.625c0.5938 0 1.0937-0.4687 1.0937-1.0625v-8.7187h6.125c0.5938 0 1.0625-0.4687 1.0625-1.0625v-18.9688c0-0.5938-0.4687-1.0937-1.0625-1.0937h-24.625z"/>
<path d="m377.4794 388.5322c-0.5938 0-1.0625 0.5-1.0625 1.0938v8.1875h-6.6562c-0.5938 0-1.0938 0.4687-1.0938 1.0625v18.9687c0 0.4454 0.2713 0.8378 0.6563 1 0.176 0.3502 0.5175 0.5938 0.9375 0.5938h24.6562c0.5938 0 1.0625-0.4687 1.0625-1.0625v-8.7188h6.125c0.5938 0 1.0625-0.4687 1.0625-1.0625v-18.9687c0-0.5938-0.4687-1.0938-1.0625-1.0938h-24.625z" fill="url(#a)"/>
</g>
</svg>
