<?xml version="1.0" encoding="UTF-8" standalone="no"?>
<svg xmlns:rdf="http://www.w3.org/1999/02/22-rdf-syntax-ns#" xmlns="http://www.w3.org/2000/svg" version="1.1" xmlns:cc="http://creativecommons.org/ns#" viewBox="0 0 16 16.127811" xmlns:dc="http://purl.org/dc/elements/1.1/">
<metadata>
<rdf:RDF>
<cc:Work rdf:about="">
<dc:format>image/svg+xml</dc:format>
<dc:type rdf:resource="http://purl.org/dc/dcmitype/StillImage"/>
</cc:Work>
</rdf:RDF>
</metadata>
<g transform="matrix(0,1,1,0,-108.194,-319.522)">
<rect style="color:#000000" fill-opacity="0" height="16" width="16" y="108.194" x="319.6498" stroke-width=".9868108"/>
<ellipse stroke-linejoin="round" style="color:#000000" stroke-linecap="square" rx="3.963478" transform="matrix(1.101789,0,0,1.080243,-44.03243,-58.71167)" stroke="#c00" ry="4.113043" cy="163.0209" cx="337.3443" stroke-dasharray="0.9166216, 1.8332432" stroke-width=".9166216" fill="none"/>
<path fill-rule="evenodd" d="m319.522 118.6983v-2.1228h7.6278v-5.3815h-2l2.8739-3 2.8739 3h-2v7.5043z"/>
</g>
</svg>
